ID,ItemType,Name,Script,Level,Race,Female,Class,Faction,Rank,Autocalc,Respawn,Animation,Disposition,Blood,Hair,Head,Persist,Blocked,Strength,Agility,Speed,Endurance,Personality,Intelligence,Willpower,Luck,Gold,Health,SpellPts,Magic
zhac_snpc_dunm_m_16_,NPC,Adaves Llendo,zhac_aa_npcscript_1,10,Dark Elf,24,Clothier,zhac_settlement,0,No,No,,50,Default (Red),b_n_dark elf_m_hair_22,b_n_dark elf_m_head_05,No,No,10,10,10,10,10,10,10,10,0,100,0,0
zhac_snpc_khaj_f_01_,NPC,Addhiranirr,zhac_aa_npcscript_1,10,Khajiit,25,Clothier,zhac_settlement,0,No,No,base_animKnA.nif,50,Default (Red),b_n_khajiit_f_hair05,b_n_khajiit_f_head_03,No,No,10,10,10,10,10,10,10,10,0,100,0,0
zhac_snpc_dunm_m_06_,NPC,Adondasi Renim,zhac_aa_npcscript_1,10,Dark Elf,24,Clothier,zhac_settlement,0,No,No,,50,Default (Red),b_n_dark elf_m_hair_23,b_n_dark elf_m_head_12,No,No,10,10,10,10,10,10,10,10,0,100,0,0
zhac_snpc_nord_m_20_,NPC,Aenar,zhac_aa_npcscript_1,10,Nord,24,Clothier,zhac_settlement,0,No,No,,50,Default (Red),b_n_nord_m_hair00,b_n_nord_m_head_01,No,No,10,10,10,10,10,10,10,10,0,100,0,0
zhac_snpc_imp_m_06_,NPC,Afer Macro,zhac_aa_npcscript_1,10,Imperial,24,Clothier,zhac_settlement,0,No,No,,50,Default (Red),b_n_imperial_m_hair_05,b_n_imperial_m_head_03,No,No,10,10,10,10,10,10,10,10,0,100,0,0
zhac_snpc_khaj_f_11_,NPC,Affri,zhac_aa_npcscript_1,10,Khajiit,25,Clothier,zhac_settlement,0,No,No,base_animKnA.nif,50,Default (Red),b_n_khajiit_f_hair04,b_n_khajiit_f_head_01,No,No,10,10,10,10,10,10,10,10,0,100,0,0
zhac_snpc_khaj_f_10_,NPC,Ahdahni,zhac_aa_npcscript_1,10,Khajiit,25,Clothier,zhac_settlement,0,No,No,base_animKnA.nif,50,Default (Red),b_n_khajiit_f_hair03,b_n_khajiit_f_head_01,No,No,10,10,10,10,10,10,10,10,0,100,0,0
zhac_snpc_khaj_f_05_,NPC,Ahndahra,zhac_aa_npcscript_1,10,Khajiit,25,Clothier,zhac_settlement,0,No,No,base_animKnA.nif,50,Default (Red),b_n_khajiit_f_hair03,B_N_Khajiit_F_Head_04,No,No,10,10,10,10,10,10,10,10,0,100,0,0
zhac_snpc_khaj_f_16_,NPC,Ahndahra,zhac_aa_npcscript_1,10,Khajiit,25,Clothier,zhac_settlement,0,No,No,base_animKnA.nif,50,Default (Red),b_n_khajiit_f_hair03,b_n_khajiit_f_head_02,No,No,10,10,10,10,10,10,10,10,0,100,0,0
zhac_snpc_khaj_f_02_,NPC,Ahzini,zhac_aa_npcscript_1,10,Khajiit,25,Clothier,zhac_settlement,0,No,No,base_animKnA.nif,50,Default (Red),b_n_khajiit_f_hair03,b_n_khajiit_f_head_02,No,No,10,10,10,10,10,10,10,10,0,100,0,0
zhac_snpc_khaj_f_03_,NPC,Ahzini,zhac_aa_npcscript_1,10,Khajiit,25,Clothier,zhac_settlement,0,No,No,base_animKnA.nif,50,Default (Red),b_n_khajiit_f_hair03,b_n_khajiit_f_head_02,No,No,10,10,10,10,10,10,10,10,0,100,0,0
zhac_snpc_khaj_f_17_,NPC,Ajira,zhac_aa_npcscript_1,10,Khajiit,25,Clothier,zhac_settlement,0,No,Yes,base_animKnA.nif,50,Default (Red),b_n_khajiit_f_hair04,b_n_imperial_f_head_04,No,No,10,10,10,10,10,10,10,10,0,100,0,0
zhac_snpc_nord_f_15_,NPC,Aldi,zhac_aa_npcscript_1,10,Nord,25,Clothier,zhac_settlement,0,No,No,,50,Default (Red),b_n_nord_f_hair_02,b_n_nord_f_head_05,No,No,10,10,10,10,10,10,10,10,0,100,0,0
zhac_snpc_nord_f_19_,NPC,Aldi,zhac_aa_npcscript_1,10,Nord,25,Clothier,zhac_settlement,0,No,No,,50,Default (Red),b_n_nord_f_hair_05,b_n_nord_f_head_03,No,No,10,10,10,10,10,10,10,10,0,100,0,0
zhac_snpc_nord_m_13_,NPC,Alfbrand,zhac_aa_npcscript_1,10,Nord,24,Clothier,zhac_settlement,0,No,No,,50,Default (Red),b_n_nord_m_hair00,b_n_nord_m_head_04,No,No,10,10,10,10,10,10,10,10,0,100,0,0
zhac_snpc_nord_m_10_,NPC,Allding,zhac_aa_npcscript_1,10,Nord,24,Clothier,zhac_settlement,0,No,No,,50,Default (Red),b_n_nord_m_hair03,b_n_nord_m_head_04,No,No,10,10,10,10,10,10,10,10,0,100,0,0
zhac_snpc_welf_m_03_,NPC,Allimir,zhac_aa_npcscript_1,10,Wood Elf,24,Clothier,zhac_settlement,0,No,No,,50,Default (Red),b_n_wood elf_m_hair_05,b_n_wood elf_m_head_03,No,No,10,10,10,10,10,10,10,10,0,100,0,0
zhac_snpc_nord_m_06_,NPC,Alvring,zhac_aa_npcscript_1,10,Nord,24,Clothier,zhac_settlement,0,No,No,,50,Default (Red),b_n_nord_m_hair04,b_n_nord_m_head_05,No,No,10,10,10,10,10,10,10,10,0,100,0,0
zhac_snpc_dunm_m_19_,NPC,Anas Dulfass,zhac_aa_npcscript_1,10,Dark Elf,24,Clothier,zhac_settlement,0,No,No,,50,Default (Red),b_n_dark elf_m_hair_10,b_n_dark elf_m_head_02,No,No,10,10,10,10,10,10,10,10,0,100,0,0
zhac_snpc_redg_f_14_,NPC,Ancola,zhac_aa_npcscript_1,10,Redguard,25,Clothier,zhac_settlement,0,No,No,,50,Default (Red),b_n_redguard_f_hair_04,b_n_redguard_f_head_04,No,No,10,10,10,10,10,10,10,10,0,100,0,0
zhac_snpc_redg_f_15_,NPC,Ancola,zhac_aa_npcscript_1,10,Redguard,25,Clothier,zhac_settlement,0,No,No,,50,Default (Red),b_n_redguard_f_hair_01,b_n_redguard_f_head_04,No,No,10,10,10,10,10,10,10,10,0,100,0,0
zhac_snpc_welf_m_02_,NPC,Anglalos,zhac_aa_npcscript_1,10,Wood Elf,24,Clothier,zhac_settlement,0,No,No,,50,Default (Red),b_n_wood elf_m_hair_03,b_n_wood elf_m_head_04,No,No,10,10,10,10,10,10,10,10,0,100,0,0
zhac_snpc_helf_m_03_,NPC,Angoril,zhac_aa_npcscript_1,10,High Elf,24,Clothier,zhac_settlement,0,No,No,,50,Default (Red),b_n_high elf_m_hair_03,b_n_high elf_m_head_02,No,No,10,10,10,10,10,10,10,10,0,100,0,0
zhac_snpc_helf_m_04_,NPC,Angoril,zhac_aa_npcscript_1,10,High Elf,24,Clothier,zhac_settlement,0,No,No,,50,Default (Red),b_n_high elf_m_hair_02,b_n_high elf_m_head_04,No,No,10,10,10,10,10,10,10,10,0,100,0,0
zhac_snpc_dunm_f_06_,NPC,Anise Deltis,zhac_aa_npcscript_1,10,Dark Elf,25,Clothier,zhac_settlement,0,No,No,,50,Default (Red),b_n_dark elf_f_hair_05,b_n_dark elf_f_head_01,No,No,10,10,10,10,10,10,10,10,0,100,0,0
zhac_snpc_nord_f_02_,NPC,Anja,zhac_aa_npcscript_1,10,Nord,25,Clothier,zhac_settlement,0,No,No,,70,Default (Red),b_n_nord_f_hair_01,B_N_Nord_F_head_12,No,No,10,10,10,10,10,10,10,10,0,100,0,0
zhac_snpc_nord_f_05_,NPC,Anja,zhac_aa_npcscript_1,10,Nord,25,Clothier,zhac_settlement,0,No,No,,50,Default (Red),b_n_nord_f_hair_05,B_N_Nord_F_head_10,No,No,10,10,10,10,10,10,10,10,0,100,0,0
zhac_snpc_nord_f_09_,NPC,Anja,zhac_aa_npcscript_1,10,Nord,25,Clothier,zhac_settlement,0,No,No,,50,Default (Red),b_n_nord_f_hair_04,b_n_nord_f_head_04,No,No,10,10,10,10,10,10,10,10,0,100,0,0
zhac_snpc_khaj_f_20_,NPC,Anjari,zhac_aa_npcscript_1,10,Khajiit,25,Clothier,zhac_settlement,0,No,No,base_animKnA.nif,50,Default (Red),b_n_khajiit_f_hair03,b_n_khajiit_f_head_01,No,No,10,10,10,10,10,10,10,10,0,100,0,0
zhac_snpc_redg_f_02_,NPC,Anora,zhac_aa_npcscript_1,10,Redguard,25,Clothier,zhac_settlement,0,No,No,,50,Default (Red),b_n_redguard_f_hair_01,b_n_redguard_f_head_03,No,No,10,10,10,10,10,10,10,10,0,100,0,0
zhac_snpc_redg_f_12_,NPC,Anora,zhac_aa_npcscript_1,10,Redguard,25,Clothier,zhac_settlement,0,No,No,,50,Default (Red),b_n_redguard_f_hair_04,b_n_redguard_f_head_02,No,No,10,10,10,10,10,10,10,10,0,100,0,0
zhac_snpc_welf_f_03_,NPC,Anrel,zhac_aa_npcscript_1,10,Wood Elf,25,Clothier,zhac_settlement,0,No,No,,50,Default (Red),b_n_wood elf_f_hair_04,b_n_wood elf_f_head_03,No,No,10,10,10,10,10,10,10,10,0,100,0,0
zhac_snpc_welf_f_12_,NPC,Anrel,zhac_aa_npcscript_1,10,Wood Elf,25,Clothier,zhac_settlement,0,No,No,,50,Default (Red),b_n_wood elf_f_hair_05,b_n_wood elf_f_head_02,No,No,10,10,10,10,10,10,10,10,0,100,0,0
zhac_snpc_khaj_f_08_,NPC,Arabhi,zhac_aa_npcscript_1,10,Khajiit,25,Clothier,zhac_settlement,0,No,No,base_animKnA.nif,50,Default (Red),b_n_khajiit_f_hair04,b_n_khajiit_f_head_03,No,No,10,10,10,10,10,10,10,10,0,100,0,0
zhac_snpc_welf_f_17_,NPC,Aradraen,zhac_aa_npcscript_1,10,Wood Elf,25,Clothier,zhac_settlement,0,No,No,,50,Default (Red),b_n_wood elf_f_hair_02,b_n_wood elf_f_head_05,No,No,10,10,10,10,10,10,10,10,0,100,0,0
zhac_snpc_welf_m_17_,NPC,Arannir,zhac_aa_npcscript_1,10,Wood Elf,24,Clothier,zhac_settlement,0,No,No,,50,Default (Red),b_n_wood elf_m_hair_03,b_n_wood elf_m_head_02,No,No,10,10,10,10,10,10,10,10,0,100,0,0
zhac_snpc_helf_f_04_,NPC,Ardarume,zhac_aa_npcscript_1,10,High Elf,25,Clothier,zhac_settlement,0,No,No,,50,Default (Red),b_n_high elf_f_hair_03,b_n_high elf_f_head_02,No,No,10,10,10,10,10,10,10,10,0,100,0,0
zhac_snpc_dunm_f_20_,NPC,Aryni Sedas,zhac_aa_npcscript_1,10,Dark Elf,25,Clothier,zhac_settlement,0,No,No,,50,Default (Red),b_n_dark elf_f_hair_19,b_n_dark elf_f_head_01,No,No,10,10,10,10,10,10,10,10,0,100,0,0
zhac_snpc_bret_f_19_,NPC,Aurnie Gilelle,zhac_aa_npcscript_1,10,Breton,25,Clothier,zhac_settlement,0,No,No,,50,Default (Red),b_n_breton_f_hair_02,b_n_breton_f_head_04,No,No,10,10,10,10,10,10,10,10,0,100,0,0
zhac_snpc_orc_f_19_,NPC,Badbog gra-Bulfish,zhac_aa_npcscript_1,10,Orc,25,Clothier,zhac_settlement,0,No,No,,50,Default (Red),b_n_orc_f_hair03,b_n_orc_f_head_01,No,No,10,10,10,10,10,10,10,10,0,100,0,0
zhac_snpc_dunm_m_14_,NPC,Baladas Thirano,zhac_aa_npcscript_1,10,Dark Elf,24,Clothier,zhac_settlement,0,No,No,,50,Default (Red),b_n_dark elf_m_hair_03,b_n_dark elf_m_head_08,No,No,10,10,10,10,10,10,10,10,0,100,0,0
zhac_snpc_orc_f_07_,NPC,Bashuk gra-Kashug,zhac_aa_npcscript_1,10,Orc,25,Clothier,zhac_settlement,0,No,No,,50,Default (Red),b_n_orc_f_hair01,b_n_orc_f_head_02,No,No,10,10,10,10,10,10,10,10,0,100,0,0
zhac_snpc_nord_m_03_,NPC,Batou,zhac_aa_npcscript_1,10,Nord,24,Clothier,zhac_settlement,0,No,No,,50,Default (Red),b_n_nord_m_hair01,B_N_Nord_M_Head_06,No,No,10,10,10,10,10,10,10,10,0,100,0,0
zhac_snpc_arg_f_02_,NPC,Beekatan,zhac_aa_npcscript_1,10,Argonian,25,Clothier,zhac_settlement,0,No,No,base_animKnA.nif,50,Default (Red),b_n_argonian_f_hair02,b_n_argonian_f_head_02,No,No,10,10,10,10,10,10,10,10,0,100,0,0
zhac_snpc_bret_m_05_,NPC,Bereditte Geontene,zhac_aa_npcscript_1,10,Breton,24,Clothier,zhac_settlement,0,No,No,,50,Default (Red),b_n_breton_m_hair_02,b_n_breton_m_head_06,No,No,10,10,10,10,10,10,10,10,0,100,0,0
zhac_snpc_nord_f_20_,NPC,Bergljot,zhac_aa_npcscript_1,10,Nord,25,Clothier,zhac_settlement,0,No,No,,50,Default (Red),b_n_nord_f_hair_03,b_n_nord_f_head_03,No,No,10,10,10,10,10,10,10,10,0,100,0,0
zhac_snpc_bret_m_12_,NPC,Birard Ancois,zhac_aa_npcscript_1,10,Breton,24,Clothier,zhac_settlement,0,No,No,,50,Default (Red),b_n_breton_m_hair_05,B_N_Breton_M_Head_08,No,No,10,10,10,10,10,10,10,10,0,100,0,0
zhac_snpc_bret_m_03_,NPC,Birard Sylbenitte,zhac_aa_npcscript_1,10,Breton,24,Clothier,zhac_settlement,0,No,No,,50,Default (Red),b_n_breton_m_hair_03,b_n_breton_m_head_06,No,No,10,10,10,10,10,10,10,10,0,100,0,0
zhac_snpc_imp_f_18_,NPC,Blatta Lalelia,zhac_aa_npcscript_1,10,Imperial,25,Clothier,zhac_settlement,0,No,No,,50,Default (Red),b_n_imperial_f_hair_04,b_n_imperial_f_head_05,No,No,10,10,10,10,10,10,10,10,0,100,0,0
zhac_snpc_orc_f_20_,NPC,Bogdub gra-Bargamph,zhac_aa_npcscript_1,10,Orc,25,Clothier,zhac_settlement,0,No,No,,50,Default (Red),b_n_orc_f_hair04,b_n_orc_f_head_03,No,No,10,10,10,10,10,10,10,10,0,100,0,0
zhac_snpc_orc_f_13_,NPC,Bogdub gra-Ogdub,zhac_aa_npcscript_1,10,Orc,25,Clothier,zhac_settlement,0,No,No,,50,Default (Red),b_n_orc_f_hair05,b_n_orc_f_head_02,No,No,10,10,10,10,10,10,10,10,0,100,0,0
zhac_snpc_welf_m_08_,NPC,Bolrin,zhac_aa_npcscript_1,10,Wood Elf,24,Clothier,zhac_settlement,0,No,No,,50,Default (Red),b_n_wood elf_m_hair_03,b_n_wood elf_m_head_05,No,No,10,10,10,10,10,10,10,10,0,100,0,0
zhac_snpc_welf_m_12_,NPC,Bolrin,zhac_aa_npcscript_1,10,Wood Elf,24,Clothier,zhac_settlement,0,No,No,,50,Default (Red),b_n_wood elf_m_hair_03,b_n_wood elf_m_head_04,No,No,10,10,10,10,10,10,10,10,0,100,0,0
zhac_snpc_dunm_m_15_,NPC,Bolyn Varo,zhac_aa_npcscript_1,10,Dark Elf,24,Clothier,zhac_settlement,0,No,No,,50,Default (Red),b_n_dark elf_m_hair_15,b_n_dark elf_m_head_01,No,No,10,10,10,10,10,10,10,10,0,100,0,0
zhac_snpc_welf_f_11_,NPC,Borwen,zhac_aa_npcscript_1,10,Wood Elf,25,Clothier,zhac_settlement,0,No,No,,50,Default (Red),b_n_wood elf_f_hair_02,b_n_wood elf_f_head_04,No,No,10,10,10,10,10,10,10,10,0,100,0,0
zhac_snpc_welf_f_19_,NPC,Borwen,zhac_aa_npcscript_1,10,Wood Elf,25,Clothier,zhac_settlement,0,No,No,,50,Default (Red),b_n_wood elf_f_hair_02,b_n_wood elf_f_head_04,No,No,10,10,10,10,10,10,10,10,0,100,0,0
zhac_snpc_orc_m_16_,NPC,Both gro-Bar,zhac_aa_npcscript_1,10,Orc,24,Clothier,zhac_settlement,0,No,No,,50,Default (Red),b_n_orc_m_hair_03,b_n_orc_m_head_03,No,No,10,10,10,10,10,10,10,10,0,100,0,0
zhac_snpc_orc_m_13_,NPC,Both gro-Lurn,zhac_aa_npcscript_1,10,Orc,24,Clothier,zhac_settlement,0,No,No,,50,Default (Red),b_n_orc_m_hair_01,b_n_orc_m_head_03,No,No,10,10,10,10,10,10,10,10,0,100,0,0
zhac_snpc_nord_m_18_,NPC,Botrir,zhac_aa_npcscript_1,10,Nord,24,Clothier,zhac_settlement,0,No,No,,50,Default (Red),b_n_nord_m_hair05,b_n_nord_m_head_05,No,No,10,10,10,10,10,10,10,10,0,100,0,0
zhac_snpc_bret_f_09_,NPC,Bovkinna Moniel,zhac_aa_npcscript_1,10,Breton,25,Clothier,zhac_settlement,0,No,No,,50,Default (Red),b_n_breton_f_hair_04,b_n_breton_f_head_05,No,No,10,10,10,10,10,10,10,10,0,100,0,0
zhac_snpc_welf_m_15_,NPC,Bragor,zhac_aa_npcscript_1,10,Wood Elf,24,Clothier,zhac_settlement,0,No,No,,50,Default (Red),b_n_wood elf_m_hair_03,b_n_wood elf_m_head_03,No,No,10,10,10,10,10,10,10,10,0,100,0,0
zhac_snpc_nord_f_07_,NPC,Brasteir,zhac_aa_npcscript_1,10,Nord,25,Clothier,zhac_settlement,0,No,No,,50,Default (Red),b_n_nord_f_hair_02,b_n_nord_f_head_05,No,No,10,10,10,10,10,10,10,10,0,100,0,0
zhac_snpc_arg_f_04_,NPC,Breech-Star,zhac_aa_npcscript_1,10,Argonian,25,Clothier,zhac_settlement,0,No,No,base_animKnA.nif,50,Default (Red),b_n_argonian_f_hair05,b_n_argonian_f_head_01,No,No,10,10,10,10,10,10,10,10,0,100,0,0
zhac_snpc_arg_f_08_,NPC,Breech-Star,zhac_aa_npcscript_1,10,Argonian,25,Clothier,zhac_settlement,0,No,No,base_animKnA.nif,50,Default (Red),b_n_argonian_f_hair01,b_n_argonian_f_head_02,No,No,10,10,10,10,10,10,10,10,0,100,0,0
zhac_snpc_arg_f_13_,NPC,Breech-Star,zhac_aa_npcscript_1,10,Argonian,25,Clothier,zhac_settlement,0,No,No,base_animKnA.nif,50,Default (Red),b_n_argonian_f_hair04,b_n_argonian_f_head_02,No,No,10,10,10,10,10,10,10,10,0,100,0,0
zhac_snpc_arg_f_15_,NPC,Breech-Star,zhac_aa_npcscript_1,10,Argonian,25,Clothier,zhac_settlement,0,No,No,base_animKnA.nif,50,Default (Red),b_n_argonian_f_hair02,b_n_argonian_f_head_02,No,No,10,10,10,10,10,10,10,10,0,100,0,0
zhac_snpc_arg_f_17_,NPC,Breech-Star,zhac_aa_npcscript_1,10,Argonian,25,Clothier,zhac_settlement,0,No,No,base_animKnA.nif,50,Default (Red),b_n_argonian_f_hair04,b_n_argonian_f_head_02,No,No,10,10,10,10,10,10,10,10,0,100,0,0
zhac_snpc_orc_f_10_,NPC,Bugdurash gra-Bugarn,zhac_aa_npcscript_1,10,Orc,25,Clothier,zhac_settlement,0,No,No,,50,Default (Red),b_n_orc_f_hair04,b_n_orc_f_head_01,No,No,10,10,10,10,10,10,10,10,0,100,0,0
zhac_snpc_orc_f_16_,NPC,Bula gra-Moghakh,zhac_aa_npcscript_1,10,Orc,25,Clothier,zhac_settlement,0,No,No,,50,Default (Red),b_n_orc_f_hair05,b_n_orc_f_head_02,No,No,10,10,10,10,10,10,10,10,0,100,0,0
zhac_snpc_orc_f_05_,NPC,Bulak gra-Boguk,zhac_aa_npcscript_1,10,Orc,25,Clothier,zhac_settlement,0,No,No,,50,Default (Red),b_n_orc_f_hair03,b_n_orc_f_head_03,No,No,10,10,10,10,10,10,10,10,0,100,0,0
zhac_snpc_orc_f_02_,NPC,Bulak gra-Mogduk,zhac_aa_npcscript_1,10,Orc,25,Clothier,zhac_settlement,0,No,No,,50,Default (Red),b_n_orc_f_hair01,b_n_orc_f_head_03,No,No,10,10,10,10,10,10,10,10,0,100,0,0
zhac_snpc_orc_f_18_,NPC,Bum gra-Dugul,zhac_aa_npcscript_1,10,Orc,25,Clothier,zhac_settlement,0,No,No,,50,Default (Red),b_n_orc_f_hair05,b_n_orc_f_head_02,No,No,10,10,10,10,10,10,10,10,0,100,0,0
zhac_snpc_orc_f_14_,NPC,Burzob gra-Lurkul,zhac_aa_npcscript_1,10,Orc,25,Clothier,zhac_settlement,0,No,No,,50,Default (Red),b_n_orc_f_hair03,b_n_orc_f_head_03,No,No,10,10,10,10,10,10,10,10,0,100,0,0
zhac_snpc_helf_f_19_,NPC,Calmaninde,zhac_aa_npcscript_1,10,High Elf,25,Clothier,zhac_settlement,0,No,No,,50,Default (Red),b_n_high elf_f_hair_03,b_n_high elf_f_head_01,No,No,10,10,10,10,10,10,10,10,0,100,0,0
zhac_snpc_redg_f_09_,NPC,Caminda,zhac_aa_npcscript_1,10,Redguard,25,Clothier,zhac_settlement,0,No,No,,50,Default (Red),b_n_redguard_f_hair_02,b_n_redguard_f_head_04,No,No,10,10,10,10,10,10,10,10,0,100,0,0
zhac_snpc_imp_m_12_,NPC,Cavortius Cosades,zhac_aa_npcscript_1,10,Imperial,24,Clothier,zhac_settlement,0,No,No,,50,Default (Red),b_n_imperial_m_hair_03,b_n_imperial_m_head_03,No,No,10,10,10,10,10,10,10,10,0,100,0,0
zhac_snpc_welf_f_10_,NPC,Celegil,zhac_aa_npcscript_1,10,Wood Elf,25,Clothier,zhac_settlement,0,No,No,,50,Default (Red),b_n_wood elf_f_hair_02,b_n_wood elf_f_head_04,No,No,10,10,10,10,10,10,10,10,0,100,0,0
zhac_snpc_welf_m_19_,NPC,Celegorn,zhac_aa_npcscript_1,10,Wood Elf,24,Clothier,zhac_settlement,0,No,No,,50,Default (Red),b_n_wood elf_m_hair_06,B_N_Wood Elf_M_Head_06,No,No,10,10,10,10,10,10,10,10,0,100,0,0
zhac_snpc_arg_f_20_,NPC,Chanil-Lee,zhac_aa_npcscript_1,10,Argonian,25,Clothier,zhac_settlement,0,No,No,base_animKnA.nif,50,Default (Red),b_n_argonian_f_hair02,b_n_argonian_f_head_03,No,No,10,10,10,10,10,10,10,10,0,100,0,0
zhac_snpc_bret_f_03_,NPC,Cienne Adrard,zhac_aa_npcscript_1,10,Breton,25,Clothier,zhac_settlement,0,No,No,,50,Default (Red),b_n_breton_f_hair_02,b_n_breton_f_head_04,No,No,10,10,10,10,10,10,10,10,0,100,0,0
zhac_snpc_bret_f_05_,NPC,Cienne Beauchamp,zhac_aa_npcscript_1,10,Breton,25,Clothier,zhac_settlement,0,No,No,,50,Default (Red),b_n_breton_f_hair_01,b_n_breton_f_head_04,No,No,10,10,10,10,10,10,10,10,0,100,0,0
zhac_snpc_imp_m_08_,NPC,Cimber Flavonius,zhac_aa_npcscript_1,10,Imperial,24,Clothier,zhac_settlement,0,No,No,,50,Default (Red),B_N_Imperial_M_Hair_08,b_n_imperial_m_head_05,No,No,10,10,10,10,10,10,10,10,0,100,0,0
zhac_snpc_imp_f_05_,NPC,Cinia Cullian,zhac_aa_npcscript_1,10,Imperial,25,Clothier,zhac_settlement,0,No,No,,50,Default (Red),B_N_Imperial_F_Hair_06,b_n_imperial_f_head_03,No,No,10,10,10,10,10,10,10,10,0,100,0,0
zhac_snpc_helf_f_06_,NPC,Ciralinde,zhac_aa_npcscript_1,10,High Elf,25,Clothier,zhac_settlement,0,No,No,,50,Default (Red),b_n_high elf_f_hair_02,b_n_high elf_f_head_05,No,No,10,10,10,10,10,10,10,10,0,100,0,0
zhac_snpc_helf_f_14_,NPC,Ciralinde,zhac_aa_npcscript_1,10,High Elf,25,Clothier,zhac_settlement,0,No,No,,50,Default (Red),b_n_high elf_f_hair_03,b_n_high elf_f_head_01,No,No,10,10,10,10,10,10,10,10,0,100,0,0
zhac_snpc_redg_m_15_,NPC,Cluson,zhac_aa_npcscript_1,10,Redguard,24,Clothier,zhac_settlement,0,No,No,,50,Default (Red),b_n_redguard_m_hair_05,b_n_redguard_m_head_04,No,No,10,10,10,10,10,10,10,10,0,100,0,0
zhac_snpc_imp_f_11_,NPC,Coventina Siruliulus,zhac_aa_npcscript_1,10,Imperial,25,Clothier,zhac_settlement,0,No,No,,50,Default (Red),b_n_imperial_f_hair_02,b_n_imperial_f_head_05,No,No,10,10,10,10,10,10,10,10,0,100,0,0
zhac_snpc_imp_m_03_,NPC,Crassius Douar,zhac_aa_npcscript_1,10,Imperial,24,Clothier,zhac_settlement,0,No,No,,50,Default (Red),B_N_Imperial_M_Hair_08,B_N_Imperial_M_Head_07,No,No,10,10,10,10,10,10,10,10,0,100,0,0
zhac_snpc_helf_f_15_,NPC,Culumaire,zhac_aa_npcscript_1,10,High Elf,25,Clothier,zhac_settlement,0,No,No,,50,Default (Red),b_n_high elf_f_hair_02,b_n_high elf_f_head_03,No,No,10,10,10,10,10,10,10,10,0,100,0,0
zhac_snpc_khaj_f_13_,NPC,Dahleena,zhac_aa_npcscript_1,10,Khajiit,25,Clothier,zhac_settlement,0,No,No,base_animKnA.nif,50,Default (Red),b_n_khajiit_f_hair02,b_n_khajiit_f_head_02,No,No,10,10,10,10,10,10,10,10,0,100,0,0
zhac_snpc_redg_m_11_,NPC,Daracy,zhac_aa_npcscript_1,10,Redguard,24,Clothier,zhac_settlement,0,No,No,,50,Default (Red),b_n_redguard_m_hair_01,b_n_redguard_m_head_05,No,No,10,10,10,10,10,10,10,10,0,100,0,0
zhac_snpc_redg_m_14_,NPC,Daracy,zhac_aa_npcscript_1,10,Redguard,24,Clothier,zhac_settlement,0,No,Yes,,50,Default (Red),b_n_redguard_m_hair_01,b_n_redguard_m_head_04,No,No,10,10,10,10,10,10,10,10,0,100,0,0
zhac_snpc_bret_m_16_,NPC,Daric Chriditte,zhac_aa_npcscript_1,10,Breton,24,Clothier,zhac_settlement,0,No,No,,50,Default (Red),b_n_breton_m_hair_00,b_n_breton_m_head_01,No,No,10,10,10,10,10,10,10,10,0,100,0,0
zhac_snpc_dunm_f_13_,NPC,Darvala Damori,zhac_aa_npcscript_1,10,Dark Elf,25,Clothier,zhac_settlement,0,No,No,,50,Default (Red),b_n_dark elf_f_hair_15,b_n_dark elf_f_head_07,No,No,10,10,10,10,10,10,10,10,0,100,0,0
zhac_snpc_redg_f_01_,NPC,Davina,zhac_aa_npcscript_1,10,Redguard,25,Clothier,zhac_settlement,0,No,No,,50,Default (Red),b_n_redguard_f_hair_03,b_n_redguard_f_head_02,No,No,10,10,10,10,10,10,10,10,0,100,0,0
zhac_snpc_imp_m_07_,NPC,Depusanis Fulcinius,zhac_aa_npcscript_1,10,Imperial,24,Clothier,zhac_settlement,0,No,No,,50,Default (Red),B_N_Imperial_M_Hair_06,b_n_imperial_m_head_03,No,No,10,10,10,10,10,10,10,10,0,100,0,0
zhac_snpc_redg_m_18_,NPC,Dinok,zhac_aa_npcscript_1,10,Redguard,24,Clothier,zhac_settlement,0,No,No,,50,Default (Red),b_n_redguard_m_hair_02,b_n_redguard_m_head_04,No,No,10,10,10,10,10,10,10,10,0,100,0,0
zhac_snpc_dunm_f_03_,NPC,Dinuro Valor,zhac_aa_npcscript_1,10,Dark Elf,25,Clothier,zhac_settlement,0,No,No,,50,Default (Red),b_n_dark elf_f_hair_05,b_n_dark elf_f_head_03,No,No,10,10,10,10,10,10,10,10,0,100,0,0
zhac_snpc_welf_f_18_,NPC,Distel,zhac_aa_npcscript_1,10,Wood Elf,25,Clothier,zhac_settlement,0,No,No,,50,Default (Red),b_n_wood elf_f_hair_01,b_n_wood elf_f_head_05,No,No,10,10,10,10,10,10,10,10,0,100,0,0
zhac_snpc_welf_m_20_,NPC,Dondir,zhac_aa_npcscript_1,10,Wood Elf,24,Clothier,zhac_settlement,0,No,No,,50,Default (Red),b_n_wood elf_m_hair_01,b_n_wood elf_m_head_04,No,No,10,10,10,10,10,10,10,10,0,100,0,0
zhac_snpc_welf_f_07_,NPC,Dondreth,zhac_aa_npcscript_1,10,Wood Elf,25,Clothier,zhac_settlement,0,No,No,,50,Default (Red),b_n_wood elf_f_hair_03,b_n_wood elf_f_head_03,No,No,10,10,10,10,10,10,10,10,0,100,0,0
zhac_snpc_dunm_m_10_,NPC,Drarel Girendas,zhac_aa_npcscript_1,10,Dark Elf,24,Clothier,zhac_settlement,0,No,No,,50,Default (Red),b_n_dark elf_m_hair_20,b_n_dark elf_m_head_06,No,No,10,10,10,10,10,10,10,10,0,100,0,0
zhac_snpc_arg_m_03_,NPC,Dreaded-Water,zhac_aa_npcscript_1,10,Argonian,24,Clothier,zhac_settlement,0,No,No,base_animKnA.nif,50,Default (Red),b_n_argonian_m_hair02,b_n_argonian_m_head_01,No,No,10,10,10,10,10,10,10,10,0,100,0,0
zhac_snpc_dunm_f_12_,NPC,Drelyne Evos,zhac_aa_npcscript_1,10,Dark Elf,25,Clothier,zhac_settlement,0,No,No,,50,Default (Red),b_n_dark elf_f_hair_15,b_n_dark elf_f_head_04,No,No,10,10,10,10,10,10,10,10,0,100,0,0
zhac_snpc_khaj_m_02_,NPC,Dro'farahn,zhac_aa_npcscript_1,10,Khajiit,24,Clothier,zhac_settlement,0,No,No,base_animKnA.nif,50,Default (Red),b_n_khajiit_m_hair04,b_n_khajiit_m_head_02,No,No,10,10,10,10,10,10,10,10,0,100,0,0
zhac_snpc_khaj_m_09_,NPC,Dro'Sakhar,zhac_aa_npcscript_1,10,Khajiit,24,Clothier,zhac_settlement,0,No,No,base_animKnA.nif,50,Default (Red),b_n_khajiit_m_hair04,b_n_khajiit_m_head_01,No,No,10,10,10,10,10,10,10,10,0,100,0,0
zhac_snpc_khaj_m_12_,NPC,Dro'Sakhar,zhac_aa_npcscript_1,10,Khajiit,24,Clothier,zhac_settlement,0,No,No,base_animKnA.nif,50,Default (Red),b_n_khajiit_m_hair04,b_n_khajiit_m_head_02,No,No,10,10,10,10,10,10,10,10,0,100,0,0
zhac_snpc_khaj_m_20_,NPC,Dro'Tasarr,zhac_aa_npcscript_1,10,Khajiit,24,Clothier,zhac_settlement,0,No,No,base_animKnA.nif,50,Default (Red),b_n_khajiit_m_hair02,b_n_khajiit_m_head_01,No,No,10,10,10,10,10,10,10,10,0,100,0,0
zhac_snpc_khaj_m_05_,NPC,Dro'Zah,zhac_aa_npcscript_1,10,Khajiit,24,Clothier,zhac_settlement,0,No,No,base_animKnA.nif,50,Default (Red),b_n_khajiit_m_hair04,b_n_khajiit_m_head_02,No,No,10,10,10,10,10,10,10,10,0,100,0,0
zhac_snpc_khaj_m_07_,NPC,Dro'Zhirr,zhac_aa_npcscript_1,10,Khajiit,24,Clothier,zhac_settlement,0,No,No,base_animKnA.nif,50,Default (Red),b_n_khajiit_m_hair04,b_n_khajiit_m_head_03,No,No,10,10,10,10,10,10,10,10,0,100,0,0
zhac_snpc_redg_m_06_,NPC,Dudley,zhac_aa_npcscript_1,10,Redguard,24,Clothier,zhac_settlement,0,No,No,,50,Default (Red),b_n_redguard_m_hair_00,b_n_redguard_m_head_03,No,No,10,10,10,10,10,10,10,10,0,100,0,0
zhac_snpc_redg_f_05_,NPC,Dulian,zhac_aa_npcscript_1,10,Redguard,25,Clothier,zhac_settlement,0,No,No,,50,Default (Red),b_n_redguard_f_hair_01,b_n_redguard_f_head_03,No,No,10,10,10,10,10,10,10,10,0,100,0,0
zhac_snpc_orc_m_15_,NPC,Dumbuk gro-Lorga,zhac_aa_npcscript_1,10,Orc,24,Clothier,zhac_settlement,0,No,No,,50,Default (Red),b_n_orc_m_hair_03,b_n_orc_m_head_02,No,No,10,10,10,10,10,10,10,10,0,100,0,0
zhac_snpc_imp_m_18_,NPC,Durus Scinius,zhac_aa_npcscript_1,10,Imperial,24,Clothier,zhac_settlement,0,No,No,,50,Default (Red),b_n_imperial_m_hair_03,b_n_imperial_m_head_04,No,No,10,10,10,10,10,10,10,10,0,100,0,0
zhac_snpc_orc_m_02_,NPC,Durzol gro-Boguk,zhac_aa_npcscript_1,10,Orc,24,Clothier,zhac_settlement,0,No,No,,50,Default (Red),b_n_orc_m_hair_03,B_N_Orc_M_Head_04,No,No,10,10,10,10,10,10,10,10,0,100,0,0
zhac_snpc_imp_m_10_,NPC,Duvianus Cosades,zhac_aa_npcscript_1,10,Imperial,24,Clothier,zhac_settlement,0,No,No,,30,Default (Red),b_n_imperial_m_hair_02,b_n_imperial_m_head_03,No,No,10,10,10,10,10,10,10,10,0,100,0,0
zhac_snpc_helf_m_06_,NPC,Earmil,zhac_aa_npcscript_1,10,High Elf,24,Clothier,zhac_settlement,0,No,No,,50,Default (Red),b_n_high elf_m_hair_01,b_n_high elf_m_head_03,No,No,10,10,10,10,10,10,10,10,0,100,0,0
zhac_snpc_arg_m_04_,NPC,Effe-Tei,zhac_aa_npcscript_1,10,Argonian,24,Clothier,zhac_settlement,0,No,No,base_animKnA.nif,50,Default (Red),b_n_argonian_m_hair04,b_n_argonian_m_head_02,No,No,10,10,10,10,10,10,10,10,0,100,0,0
zhac_snpc_nord_m_15_,NPC,Eifid,zhac_aa_npcscript_1,10,Nord,24,Clothier,zhac_settlement,0,No,No,,50,Default (Red),b_n_nord_m_hair04,B_N_Nord_M_Head_06,No,No,10,10,10,10,10,10,10,10,0,100,0,0
zhac_snpc_nord_f_14_,NPC,Eigma,zhac_aa_npcscript_1,10,Nord,25,Clothier,zhac_settlement,0,No,No,,50,Default (Red),b_n_nord_f_hair_03,b_n_nord_f_head_03,No,No,10,10,10,10,10,10,10,10,0,100,0,0
zhac_snpc_helf_f_13_,NPC,Elante,zhac_aa_npcscript_1,10,High Elf,25,Clothier,zhac_settlement,0,No,No,,50,Default (Red),b_n_high elf_f_hair_03,b_n_high elf_f_head_04,No,No,10,10,10,10,10,10,10,10,0,100,0,0
zhac_snpc_bret_m_13_,NPC,Elbert Ence,zhac_aa_npcscript_1,10,Breton,24,Clothier,zhac_settlement,0,No,No,,50,Default (Red),b_n_breton_m_hair_00,b_n_breton_m_head_06,No,No,10,10,10,10,10,10,10,10,0,100,0,0
zhac_snpc_dunm_f_05_,NPC,Eldrilu Salmyn,zhac_aa_npcscript_1,10,Dark Elf,25,Clothier,zhac_settlement,0,No,No,,50,Default (Red),b_n_dark elf_f_hair_11,b_n_dark elf_f_head_10,No,No,10,10,10,10,10,10,10,10,0,100,0,0
zhac_snpc_arg_m_10_,NPC,Eleedal-Lei,zhac_aa_npcscript_1,10,Argonian,24,Clothier,zhac_settlement,0,No,No,base_animKnA.nif,50,Default (Red),b_n_argonian_m_hair01,b_n_argonian_m_head_02,No,No,10,10,10,10,10,10,10,10,0,100,0,0
zhac_snpc_welf_f_09_,NPC,Elegnan,zhac_aa_npcscript_1,10,Wood Elf,25,Clothier,zhac_settlement,0,No,No,,50,Default (Red),b_n_wood elf_f_hair_05,b_n_wood elf_f_head_05,No,No,10,10,10,10,10,10,10,10,0,100,0,0
zhac_snpc_redg_f_19_,NPC,Elone,zhac_aa_npcscript_1,10,Redguard,25,Clothier,zhac_settlement,0,No,No,,50,Default (Red),b_n_redguard_f_hair_01,b_n_redguard_f_head_05,No,No,10,10,10,10,10,10,10,10,0,100,0,0
zhac_snpc_welf_f_01_,NPC,Elphiron,zhac_aa_npcscript_1,10,Wood Elf,25,Clothier,zhac_settlement,0,No,No,,50,Default (Red),b_n_wood elf_f_hair_05,b_n_wood elf_f_head_04,No,No,10,10,10,10,10,10,10,10,0,100,0,0
zhac_snpc_welf_f_15_,NPC,Elphiron,zhac_aa_npcscript_1,10,Wood Elf,25,Clothier,zhac_settlement,0,No,No,,50,Default (Red),b_n_wood elf_f_hair_03,b_n_wood elf_f_head_02,No,No,10,10,10,10,10,10,10,10,0,100,0,0
zhac_snpc_bret_f_16_,NPC,Emusette Milielle,zhac_aa_npcscript_1,10,Breton,25,Clothier,zhac_settlement,0,No,No,,50,Default (Red),b_n_breton_f_hair_04,b_n_breton_f_head_04,No,No,10,10,10,10,10,10,10,10,0,100,0,0
zhac_snpc_imp_f_16_,NPC,Eponis Entia,zhac_aa_npcscript_1,10,Imperial,25,Clothier,zhac_settlement,0,No,No,,50,Default (Red),b_n_imperial_f_hair_01,b_n_imperial_f_head_02,No,No,10,10,10,10,10,10,10,10,0,100,0,0
zhac_snpc_imp_f_10_,NPC,Eponis Flaeus,zhac_aa_npcscript_1,10,Imperial,25,Clothier,zhac_settlement,0,No,No,,50,Default (Red),b_n_imperial_f_hair_04,b_n_imperial_f_head_05,No,No,10,10,10,10,10,10,10,10,0,100,0,0
zhac_snpc_nord_m_04_,NPC,Erich,zhac_aa_npcscript_1,10,Nord,24,Clothier,zhac_settlement,0,No,No,,50,Default (Red),b_n_nord_m_hair02,b_n_nord_m_head_02,No,No,10,10,10,10,10,10,10,10,0,100,0,0
zhac_snpc_helf_f_03_,NPC,Erissare,zhac_aa_npcscript_1,10,High Elf,25,Clothier,zhac_settlement,0,No,Yes,,50,Default (Red),b_n_high elf_f_hair_02,b_n_high elf_f_head_05,No,No,10,10,10,10,10,10,10,10,0,100,0,0
zhac_snpc_helf_m_20_,NPC,Erundil,zhac_aa_npcscript_1,10,High Elf,24,Clothier,zhac_settlement,0,No,No,,50,Default (Red),b_n_high elf_m_hair_03,b_n_high elf_m_head_04,No,No,10,10,10,10,10,10,10,10,0,100,0,0
zhac_snpc_helf_f_05_,NPC,Estalenya,zhac_aa_npcscript_1,10,High Elf,25,Clothier,zhac_settlement,0,No,No,,50,Default (Red),b_n_high elf_f_hair_04,b_n_high elf_f_head_04,No,No,10,10,10,10,10,10,10,10,0,100,0,0
zhac_snpc_helf_f_16_,NPC,Estalenya,zhac_aa_npcscript_1,10,High Elf,25,Clothier,zhac_settlement,0,No,No,,50,Default (Red),b_n_high elf_f_hair_03,b_n_high elf_f_head_04,No,No,10,10,10,10,10,10,10,10,0,100,0,0
zhac_snpc_helf_f_12_,NPC,Estirdalin,zhac_aa_npcscript_1,10,High Elf,25,Clothier,zhac_settlement,0,No,No,,50,Default (Red),b_n_high elf_f_hair_02,b_n_high elf_f_head_01,No,No,10,10,10,10,10,10,10,10,0,100,0,0
zhac_snpc_helf_f_20_,NPC,Estirdalin,zhac_aa_npcscript_1,10,High Elf,25,Clothier,zhac_settlement,0,No,No,,50,Default (Red),b_n_high elf_f_hair_04,b_n_high elf_f_head_04,No,No,10,10,10,10,10,10,10,10,0,100,0,0
zhac_snpc_imp_f_19_,NPC,Ettiene Valia,zhac_aa_npcscript_1,10,Imperial,25,Clothier,zhac_settlement,0,No,No,,50,Default (Red),B_N_Imperial_F_Hair_06,b_n_imperial_f_head_03,No,No,10,10,10,10,10,10,10,10,0,100,0,0
zhac_snpc_nord_f_11_,NPC,Eydis,zhac_aa_npcscript_1,10,Nord,25,Clothier,zhac_settlement,0,No,No,,50,Default (Red),b_n_nord_f_hair_01,b_n_nord_f_head_02,No,No,10,10,10,10,10,10,10,10,0,100,0,0
zhac_snpc_helf_f_07_,NPC,Faire,zhac_aa_npcscript_1,10,High Elf,25,Clothier,zhac_settlement,0,No,No,,50,Default (Red),b_n_high elf_f_hair_02,b_n_high elf_f_head_03,No,No,10,10,10,10,10,10,10,10,0,100,0,0
zhac_snpc_helf_f_10_,NPC,Faire,zhac_aa_npcscript_1,10,High Elf,25,Clothier,zhac_settlement,0,No,No,,50,Default (Red),b_n_high elf_f_hair_02,b_n_high elf_f_head_05,No,No,10,10,10,10,10,10,10,10,0,100,0,0
zhac_snpc_welf_f_08_,NPC,Falion,zhac_aa_npcscript_1,10,Wood Elf,25,Clothier,zhac_settlement,0,No,No,,50,Default (Red),b_n_wood elf_f_hair_05,b_n_wood elf_f_head_05,No,No,10,10,10,10,10,10,10,10,0,100,0,0
zhac_snpc_imp_f_04_,NPC,Fallaise Pundus,zhac_aa_npcscript_1,10,Imperial,25,Clothier,zhac_settlement,0,No,No,,50,Default (Red),b_n_imperial_f_hair_04,b_n_imperial_f_head_01,No,No,10,10,10,10,10,10,10,10,0,100,0,0
zhac_snpc_imp_f_12_,NPC,Fammana Closcia,zhac_aa_npcscript_1,10,Imperial,25,Clothier,zhac_settlement,0,No,No,,50,Default (Red),b_n_imperial_f_hair_01,b_n_imperial_f_head_04,No,No,10,10,10,10,10,10,10,10,0,100,0,0
zhac_snpc_dunm_m_08_,NPC,Farvyn Dathren,zhac_aa_npcscript_1,10,Dark Elf,24,Clothier,zhac_settlement,0,No,No,,50,Default (Red),b_n_dark elf_m_hair_16,b_n_dark elf_m_head_08,No,No,10,10,10,10,10,10,10,10,0,100,0,0
zhac_snpc_bret_f_15_,NPC,Fasele Viralaine,zhac_aa_npcscript_1,10,Breton,25,Clothier,zhac_settlement,0,No,No,,50,Default (Red),b_n_breton_f_hair_03,b_n_breton_f_head_01,No,No,10,10,10,10,10,10,10,10,0,100,0,0
zhac_snpc_bret_m_11_,NPC,Ferarilie Sylbenitte,zhac_aa_npcscript_1,10,Breton,24,Clothier,zhac_settlement,0,No,No,,50,Default (Red),b_n_breton_m_hair_01,b_n_breton_m_head_06,No,No,10,10,10,10,10,10,10,10,0,100,0,0
zhac_snpc_helf_m_12_,NPC,Fiiriel,zhac_aa_npcscript_1,10,High Elf,24,Clothier,zhac_settlement,0,No,No,,50,Default (Red),b_n_high elf_m_hair_05,b_n_high elf_m_head_01,No,No,10,10,10,10,10,10,10,10,0,100,0,0
zhac_snpc_welf_m_06_,NPC,Findulain,zhac_aa_npcscript_1,10,Wood Elf,24,Clothier,zhac_settlement,0,No,No,,50,Default (Red),b_n_wood elf_m_hair_04,b_n_wood elf_m_head_01,No,No,10,10,10,10,10,10,10,10,0,100,0,0
zhac_snpc_imp_f_03_,NPC,Flaenia Amnis,zhac_aa_npcscript_1,10,Imperial,25,Clothier,zhac_settlement,0,No,No,,50,Default (Red),b_n_imperial_f_hair_04,b_n_imperial_f_head_05,No,No,10,10,10,10,10,10,10,10,0,100,0,0
zhac_snpc_bret_f_14_,NPC,Frelene Moniel,zhac_aa_npcscript_1,10,Breton,25,Clothier,zhac_settlement,0,No,No,,50,Default (Red),b_n_breton_f_hair_02,b_n_breton_f_head_02,No,No,10,10,10,10,10,10,10,10,0,100,0,0
zhac_snpc_nord_m_19_,NPC,Frik,zhac_aa_npcscript_1,10,Nord,24,Clothier,zhac_settlement,0,No,No,,50,Default (Red),B_N_Nord_M_Hair07,b_n_nord_m_head_05,No,No,10,10,10,10,10,10,10,10,0,100,0,0
zhac_snpc_bret_m_04_,NPC,Frizkav Stieve,zhac_aa_npcscript_1,10,Breton,24,Clothier,zhac_settlement,0,No,No,,50,Default (Red),b_n_breton_m_hair_03,b_n_breton_m_head_05,No,No,10,10,10,10,10,10,10,10,0,100,0,0
zhac_snpc_dunm_m_11_,NPC,Galam Davor,zhac_aa_npcscript_1,10,Dark Elf,24,Clothier,zhac_settlement,0,No,No,,50,Default (Red),b_n_dark elf_m_hair_26,b_n_dark elf_m_head_01,No,No,10,10,10,10,10,10,10,10,0,100,0,0
zhac_snpc_dunm_f_02_,NPC,Galsa Terano,zhac_aa_npcscript_1,10,Dark Elf,25,Clothier,zhac_settlement,0,No,No,,50,Default (Red),b_n_dark elf_f_hair_20,b_n_dark elf_f_head_01,No,No,10,10,10,10,10,10,10,10,0,100,0,0
zhac_snpc_redg_m_04_,NPC,Gancolm,zhac_aa_npcscript_1,10,Redguard,24,Clothier,zhac_settlement,0,No,Yes,,50,Default (Red),B_N_Redguard_M_Hair_06,b_n_redguard_m_head_01,No,No,10,10,10,10,10,10,10,10,0,100,0,0
zhac_snpc_redg_m_19_,NPC,Gancolm,zhac_aa_npcscript_1,10,Redguard,24,Clothier,zhac_settlement,0,No,No,,50,Default (Red),b_n_redguard_m_hair_02,b_n_redguard_m_head_02,No,No,10,10,10,10,10,10,10,10,0,100,0,0
zhac_snpc_orc_m_17_,NPC,Gashna gro-Bar,zhac_aa_npcscript_1,10,Orc,24,Clothier,zhac_settlement,0,No,No,,50,Default (Red),b_n_orc_m_hair_05,b_n_orc_m_head_01,No,No,10,10,10,10,10,10,10,10,0,100,0,0
zhac_snpc_welf_m_04_,NPC,Gazalem,zhac_aa_npcscript_1,10,Wood Elf,24,Clothier,zhac_settlement,0,No,No,,50,Default (Red),b_n_wood elf_m_hair_02,b_n_wood elf_m_head_02,No,No,10,10,10,10,10,10,10,10,0,100,0,0
zhac_snpc_bret_m_20_,NPC,Geor Beluelle,zhac_aa_npcscript_1,10,Breton,24,Clothier,zhac_settlement,0,No,No,,50,Default (Red),b_n_breton_m_hair_04,b_n_breton_m_head_05,No,No,10,10,10,10,10,10,10,10,0,100,0,0
zhac_snpc_imp_f_13_,NPC,Germia Uulentanus,zhac_aa_npcscript_1,10,Imperial,25,Clothier,zhac_settlement,0,No,No,,50,Default (Red),b_n_imperial_f_hair_04,B_N_Imperial_F_Head_07,No,No,10,10,10,10,10,10,10,10,0,100,0,0
zhac_snpc_orc_m_04_,NPC,Ghorlorz gro-Glorzuf,zhac_aa_npcscript_1,10,Orc,24,Clothier,zhac_settlement,0,No,No,,50,Default (Red),b_n_orc_m_hair_03,b_n_orc_m_head_02,No,No,10,10,10,10,10,10,10,10,0,100,0,0
zhac_snpc_dunm_m_02_,NPC,Gils Elvul,zhac_aa_npcscript_1,10,Dark Elf,24,Clothier,zhac_settlement,0,No,No,,50,Default (Red),b_n_dark elf_m_hair_14,b_n_dark elf_m_head_06,No,No,10,10,10,10,10,10,10,10,0,100,0,0
zhac_snpc_welf_m_07_,NPC,Glaum,zhac_aa_npcscript_1,10,Wood Elf,24,Clothier,zhac_settlement,0,No,No,,50,Default (Red),b_n_wood elf_m_hair_04,b_n_wood elf_m_head_03,No,No,10,10,10,10,10,10,10,10,0,100,0,0
zhac_snpc_welf_m_11_,NPC,Glaum,zhac_aa_npcscript_1,10,Wood Elf,24,Clothier,zhac_settlement,0,No,No,,50,Default (Red),b_n_wood elf_m_hair_01,b_n_wood elf_m_head_05,No,No,10,10,10,10,10,10,10,10,0,100,0,0
zhac_snpc_orc_f_03_,NPC,Gluronk gra-Shagdulg,zhac_aa_npcscript_1,10,Orc,25,Clothier,zhac_settlement,0,No,No,,50,Default (Red),b_n_orc_f_hair02,b_n_orc_f_head_01,No,No,10,10,10,10,10,10,10,10,0,100,0,0
zhac_snpc_nord_m_11_,NPC,Godrod,zhac_aa_npcscript_1,10,Nord,24,Clothier,zhac_settlement,0,No,No,,50,Default (Red),b_n_nord_m_hair03,B_N_Nord_M_Head_08,No,No,10,10,10,10,10,10,10,10,0,100,0,0
zhac_snpc_dunm_f_08_,NPC,Golena Beloren,zhac_aa_npcscript_1,10,Dark Elf,25,Clothier,zhac_settlement,0,No,No,,50,Default (Red),b_n_dark elf_f_hair_14,b_n_dark elf_f_head_03,No,No,10,10,10,10,10,10,10,10,0,100,0,0
zhac_snpc_orc_f_11_,NPC,Gonk gra-Rugob,zhac_aa_npcscript_1,10,Orc,25,Clothier,zhac_settlement,0,No,No,,50,Default (Red),b_n_orc_f_hair01,b_n_orc_f_head_03,No,No,10,10,10,10,10,10,10,10,0,100,0,0
zhac_snpc_orc_m_01_,NPC,Grat gro-Khashnar,zhac_aa_npcscript_1,10,Orc,24,Clothier,zhac_settlement,0,No,No,,50,Default (Red),b_n_orc_m_hair_03,B_N_Orc_M_Head_04,No,No,10,10,10,10,10,10,10,10,0,100,0,0
zhac_snpc_nord_f_01_,NPC,Greidil,zhac_aa_npcscript_1,10,Nord,25,Clothier,zhac_settlement,0,No,No,,50,Default (Red),b_n_nord_f_hair_02,b_n_nord_f_head_05,No,No,10,10,10,10,10,10,10,10,0,100,0,0
zhac_snpc_arg_m_01_,NPC,Grey-Throat,zhac_aa_npcscript_1,10,Argonian,24,Clothier,zhac_settlement,0,No,No,base_animKnA.nif,50,Default (Red),b_n_argonian_m_hair02,b_n_argonian_m_head_01,No,No,10,10,10,10,10,10,10,10,0,100,0,0
zhac_snpc_orc_f_12_,NPC,Gulfim gra-Bulfish,zhac_aa_npcscript_1,10,Orc,25,Clothier,zhac_settlement,0,No,No,,50,Default (Red),b_n_orc_f_hair02,b_n_orc_f_head_02,No,No,10,10,10,10,10,10,10,10,0,100,0,0
zhac_snpc_dunm_m_13_,NPC,Gulmon Heleran,zhac_aa_npcscript_1,10,Dark Elf,24,Clothier,zhac_settlement,0,No,No,,50,Default (Red),b_n_dark elf_m_hair_02,b_n_dark elf_m_head_13,No,No,10,10,10,10,10,10,10,10,0,100,0,0
zhac_snpc_nord_f_10_,NPC,Haema,zhac_aa_npcscript_1,10,Nord,25,Clothier,zhac_settlement,0,No,No,,50,Default (Red),b_n_nord_f_hair_05,b_n_nord_f_head_03,No,No,10,10,10,10,10,10,10,10,0,100,0,0
zhac_snpc_nord_m_14_,NPC,Hakar,zhac_aa_npcscript_1,10,Nord,24,Clothier,zhac_settlement,0,No,No,,50,Default (Red),b_n_nord_m_hair02,b_n_nord_m_head_01,No,No,10,10,10,10,10,10,10,10,0,100,0,0
zhac_snpc_khaj_f_06_,NPC,Harassa,zhac_aa_npcscript_1,10,Khajiit,25,Clothier,zhac_settlement,0,No,No,base_animKnA.nif,50,Default (Red),b_n_khajiit_f_hair02,b_n_khajiit_f_head_03,No,No,10,10,10,10,10,10,10,10,0,100,0,0
zhac_snpc_helf_m_01_,NPC,Hecerinde,zhac_aa_npcscript_1,10,High Elf,24,Clothier,zhac_settlement,0,No,No,,50,Default (Red),b_n_high elf_m_hair_05,b_n_high elf_m_head_03,No,No,10,10,10,10,10,10,10,10,0,100,0,0
zhac_snpc_helf_m_10_,NPC,Hecerinde,zhac_aa_npcscript_1,10,High Elf,24,Clothier,zhac_settlement,0,No,No,,50,Default (Red),b_n_high elf_m_hair_03,b_n_high elf_m_head_04,No,No,10,10,10,10,10,10,10,10,0,100,0,0
zhac_snpc_bret_f_08_,NPC,Helviane Jeline,zhac_aa_npcscript_1,10,Breton,25,Clothier,zhac_settlement,0,No,No,,50,Default (Red),b_n_breton_f_hair_02,b_n_breton_f_head_04,No,No,10,10,10,10,10,10,10,10,0,100,0,0
zhac_snpc_bret_f_06_,NPC,Helviane Nin,zhac_aa_npcscript_1,10,Breton,25,Clothier,zhac_settlement,0,No,No,,50,Default (Red),b_n_breton_f_hair_04,b_n_breton_f_head_01,No,No,10,10,10,10,10,10,10,10,0,100,0,0
zhac_snpc_arg_m_07_,NPC,Hides-His-Eyes,zhac_aa_npcscript_1,10,Argonian,24,Clothier,zhac_settlement,0,No,No,base_animKnA.nif,50,Default (Red),b_n_argonian_m_hair03,b_n_argonian_m_head_02,No,No,10,10,10,10,10,10,10,10,0,100,0,0
zhac_snpc_arg_m_05_,NPC,Hides-His-Foot,zhac_aa_npcscript_1,10,Argonian,24,Clothier,zhac_settlement,0,No,No,base_animKnA.nif,50,Default (Red),b_n_argonian_m_hair02,b_n_argonian_m_head_03,No,No,10,10,10,10,10,10,10,10,0,100,0,0
zhac_snpc_arg_m_09_,NPC,High-Heart,zhac_aa_npcscript_1,10,Argonian,24,Clothier,zhac_settlement,0,No,No,base_animKnA.nif,50,Default (Red),b_n_argonian_m_hair04,b_n_argonian_m_head_03,No,No,10,10,10,10,10,10,10,10,0,100,0,0
zhac_snpc_redg_m_07_,NPC,Hinald,zhac_aa_npcscript_1,10,Redguard,24,Clothier,zhac_settlement,0,No,No,,50,Default (Red),b_n_redguard_m_hair_04,b_n_redguard_m_head_05,No,No,10,10,10,10,10,10,10,10,0,100,0,0
zhac_snpc_redg_m_09_,NPC,Hinald,zhac_aa_npcscript_1,10,Redguard,24,Clothier,zhac_settlement,0,No,No,,50,Default (Red),b_n_redguard_m_hair_05,b_n_redguard_m_head_01,No,No,10,10,10,10,10,10,10,10,0,100,0,0
zhac_snpc_dunm_m_18_,NPC,Hlaroi Drobar,zhac_aa_npcscript_1,10,Dark Elf,24,Clothier,zhac_settlement,0,No,No,,50,Default (Red),b_n_dark elf_m_hair_10,b_n_dark elf_m_head_04,No,No,10,10,10,10,10,10,10,10,0,100,0,0
zhac_snpc_dunm_f_09_,NPC,Hlireni Adas,zhac_aa_npcscript_1,10,Dark Elf,25,Clothier,zhac_settlement,0,No,No,,40,Default (Red),b_n_dark elf_f_hair_07,b_n_dark elf_f_head_04,No,No,10,10,10,10,10,10,10,10,0,100,0,0
zhac_snpc_nord_f_04_,NPC,Hrordis,zhac_aa_npcscript_1,10,Nord,25,Clothier,zhac_settlement,0,No,No,,50,Default (Red),b_n_nord_f_hair_04,b_n_nord_f_head_03,No,No,10,10,10,10,10,10,10,10,0,100,0,0
zhac_snpc_arg_f_16_,NPC,Hul,zhac_aa_npcscript_1,10,Argonian,25,Clothier,zhac_settlement,0,No,No,base_animKnA.nif,50,Default (Red),b_n_argonian_f_hair05,b_n_argonian_f_head_02,No,No,10,10,10,10,10,10,10,10,0,100,0,0
zhac_snpc_arg_m_17_,NPC,Huleeya,zhac_aa_npcscript_1,10,Argonian,24,Clothier,zhac_settlement,0,No,No,base_animKnA.nif,50,Default (Red),b_n_argonian_m_hair03,b_n_argonian_m_head_02,No,No,10,10,10,10,10,10,10,10,0,100,0,0
zhac_snpc_nord_f_06_,NPC,Hyring,zhac_aa_npcscript_1,10,Nord,25,Clothier,zhac_settlement,0,No,No,,50,Default (Red),b_n_nord_f_hair_05,b_n_nord_f_head_04,No,No,10,10,10,10,10,10,10,10,0,100,0,0
zhac_snpc_khaj_f_15_,NPC,Idhassi,zhac_aa_npcscript_1,10,Khajiit,25,Clothier,zhac_settlement,0,No,No,base_animKnA.nif,50,Default (Red),b_n_khajiit_f_hair01,b_n_khajiit_f_head_03,No,No,10,10,10,10,10,10,10,10,0,100,0,0
zhac_snpc_dunm_m_03_,NPC,Idros Salaren,zhac_aa_npcscript_1,10,Dark Elf,24,Clothier,zhac_settlement,0,No,No,,50,Default (Red),b_n_dark elf_m_hair_05,b_n_dark elf_m_head_06,No,No,10,10,10,10,10,10,10,10,0,100,0,0
zhac_snpc_dunm_f_14_,NPC,Ienase Selas,zhac_aa_npcscript_1,10,Dark Elf,25,Clothier,zhac_settlement,0,No,No,,50,Default (Red),b_n_dark elf_f_hair_19,b_n_dark elf_f_head_07,No,No,10,10,10,10,10,10,10,10,0,100,0,0
zhac_snpc_helf_f_01_,NPC,Iirenoore,zhac_aa_npcscript_1,10,High Elf,25,Clothier,zhac_settlement,0,No,No,,20,Default (Red),b_n_high elf_f_hair_03,b_n_high elf_f_head_03,No,No,10,10,10,10,10,10,10,10,0,100,0,0
zhac_snpc_redg_m_03_,NPC,Ilden,zhac_aa_npcscript_1,10,Redguard,24,Clothier,zhac_settlement,0,No,Yes,,50,Default (Red),b_n_redguard_m_hair_05,b_n_redguard_m_head_05,No,No,10,10,10,10,10,10,10,10,0,100,0,0
zhac_snpc_nord_f_03_,NPC,Ilfhild,zhac_aa_npcscript_1,10,Nord,25,Clothier,zhac_settlement,0,No,No,,50,Default (Red),b_n_nord_f_hair_02,b_n_nord_f_head_03,No,No,10,10,10,10,10,10,10,10,0,100,0,0
zhac_snpc_helf_f_11_,NPC,Irinwe,zhac_aa_npcscript_1,10,High Elf,25,Clothier,zhac_settlement,0,No,No,,50,Default (Red),b_n_high elf_f_hair_03,b_n_high elf_f_head_01,No,No,10,10,10,10,10,10,10,10,0,100,0,0
zhac_snpc_imp_m_16_,NPC,Iulus Secunius,zhac_aa_npcscript_1,10,Imperial,24,Clothier,zhac_settlement,0,No,No,,50,Default (Red),b_n_imperial_m_hair_03,b_n_imperial_m_head_04,No,No,10,10,10,10,10,10,10,10,0,100,0,0
zhac_snpc_dunm_f_10_,NPC,Iveri Galen,zhac_aa_npcscript_1,10,Dark Elf,25,Clothier,zhac_settlement,0,No,No,,50,Default (Red),b_n_dark elf_f_hair_08,b_n_dark elf_f_head_07,No,No,10,10,10,10,10,10,10,10,0,100,0,0
zhac_snpc_khaj_m_08_,NPC,J'Dato,zhac_aa_npcscript_1,10,Khajiit,24,Clothier,zhac_settlement,0,No,No,base_animKnA.nif,50,Default (Red),b_n_khajiit_m_hair05,b_n_khajiit_m_head_02,No,No,10,10,10,10,10,10,10,10,0,100,0,0
zhac_snpc_khaj_m_19_,NPC,J'Jarsha,zhac_aa_npcscript_1,10,Khajiit,24,Clothier,zhac_settlement,0,No,No,base_animKnA.nif,50,Default (Red),b_n_khajiit_m_hair01,b_n_khajiit_m_head_02,No,No,10,10,10,10,10,10,10,10,0,100,0,0
zhac_snpc_bret_m_10_,NPC,Jadier Fralinie,zhac_aa_npcscript_1,10,Breton,24,Clothier,zhac_settlement,0,No,No,,50,Default (Red),b_n_breton_m_hair_01,b_n_breton_m_head_06,No,No,10,10,10,10,10,10,10,10,0,100,0,0
zhac_snpc_redg_f_18_,NPC,Jaline,zhac_aa_npcscript_1,10,Redguard,25,Clothier,zhac_settlement,0,No,No,,50,Default (Red),b_n_redguard_f_hair_05,b_n_redguard_f_head_01,No,No,10,10,10,10,10,10,10,10,0,100,0,0
zhac_snpc_redg_f_04_,NPC,Jeanne,zhac_aa_npcscript_1,10,Redguard,25,Clothier,zhac_settlement,0,No,No,,50,Default (Red),b_n_redguard_f_hair_04,b_n_redguard_f_head_01,No,No,10,10,10,10,10,10,10,10,0,100,0,0
zhac_snpc_bret_f_10_,NPC,Jeanne Nin,zhac_aa_npcscript_1,10,Breton,25,Clothier,zhac_settlement,0,No,No,,50,Default (Red),b_n_breton_f_hair_04,b_n_breton_f_head_02,No,No,10,10,10,10,10,10,10,10,0,100,0,0
zhac_snpc_redg_m_08_,NPC,Jine,zhac_aa_npcscript_1,10,Redguard,24,Clothier,zhac_settlement,0,No,No,,50,Default (Red),b_n_redguard_m_hair_02,b_n_redguard_m_head_03,No,No,10,10,10,10,10,10,10,10,0,100,0,0
zhac_snpc_redg_m_10_,NPC,Jine,zhac_aa_npcscript_1,10,Redguard,24,Clothier,zhac_settlement,0,No,No,,50,Default (Red),b_n_redguard_m_hair_03,b_n_redguard_m_head_05,No,No,10,10,10,10,10,10,10,10,0,100,0,0
zhac_snpc_bret_m_09_,NPC,Joncis Oges,zhac_aa_npcscript_1,10,Breton,24,Clothier,zhac_settlement,0,No,No,,50,Default (Red),b_n_breton_m_hair_01,b_n_breton_m_head_01,No,No,10,10,10,10,10,10,10,10,0,100,0,0
zhac_snpc_khaj_m_06_,NPC,Joshur,zhac_aa_npcscript_1,10,Khajiit,24,Clothier,zhac_settlement,0,No,No,base_animKnA.nif,50,Default (Red),b_n_khajiit_m_hair05,b_n_khajiit_m_head_03,No,No,10,10,10,10,10,10,10,10,0,100,0,0
zhac_snpc_khaj_m_15_,NPC,Joshur,zhac_aa_npcscript_1,10,Khajiit,24,Clothier,zhac_settlement,0,No,No,base_animKnA.nif,50,Default (Red),b_n_khajiit_m_hair05,b_n_khajiit_m_head_03,No,No,10,10,10,10,10,10,10,10,0,100,0,0
zhac_snpc_khaj_m_17_,NPC,Joshur,zhac_aa_npcscript_1,10,Khajiit,24,Clothier,zhac_settlement,0,No,No,base_animKnA.nif,50,Default (Red),b_n_khajiit_m_hair05,B_N_Khajiit_M_Head_04,No,No,10,10,10,10,10,10,10,10,0,100,0,0
zhac_snpc_bret_f_20_,NPC,Joslin Moniel,zhac_aa_npcscript_1,10,Breton,25,Clothier,zhac_settlement,0,No,No,,50,Default (Red),b_n_breton_f_hair_03,b_n_breton_f_head_05,No,No,10,10,10,10,10,10,10,10,0,100,0,0
zhac_snpc_redg_f_10_,NPC,Karlirah,zhac_aa_npcscript_1,10,Redguard,25,Clothier,zhac_settlement,0,No,No,,50,Default (Red),b_n_redguard_f_hair_01,b_n_redguard_f_head_05,No,No,10,10,10,10,10,10,10,10,0,100,0,0
zhac_snpc_redg_f_20_,NPC,Karlirah,zhac_aa_npcscript_1,10,Redguard,25,Clothier,zhac_settlement,0,No,No,,50,Default (Red),b_n_redguard_f_hair_01,b_n_redguard_f_head_04,No,No,10,10,10,10,10,10,10,10,0,100,0,0
zhac_snpc_redg_m_01_,NPC,Karrod,zhac_aa_npcscript_1,10,Redguard,24,Clothier,zhac_settlement,0,No,No,,50,Default (Red),b_n_redguard_m_hair_01,b_n_redguard_m_head_05,No,No,10,10,10,10,10,10,10,10,0,100,0,0
zhac_snpc_welf_f_02_,NPC,Kirsty,zhac_aa_npcscript_1,10,Wood Elf,25,Clothier,zhac_settlement,0,No,No,,50,Default (Red),b_n_wood elf_f_hair_03,B_N_Wood Elf_F_Head_06,No,No,10,10,10,10,10,10,10,10,0,100,0,0
zhac_snpc_nord_m_16_,NPC,Kunthar,zhac_aa_npcscript_1,10,Nord,24,Clothier,zhac_settlement,0,No,No,,50,Default (Red),b_n_nord_m_hair04,B_N_Nord_M_Head_06,No,No,10,10,10,10,10,10,10,10,0,100,0,0
zhac_snpc_imp_f_08_,NPC,Lalatia Amnis,zhac_aa_npcscript_1,10,Imperial,25,Clothier,zhac_settlement,0,No,No,,50,Default (Red),b_n_imperial_f_hair_05,b_n_imperial_f_head_01,No,No,10,10,10,10,10,10,10,10,0,100,0,0
zhac_snpc_bret_m_07_,NPC,Lanie Rielle,zhac_aa_npcscript_1,10,Breton,24,Clothier,zhac_settlement,0,No,No,,50,Default (Red),b_n_breton_m_hair_02,B_N_Breton_M_Head_07,No,No,10,10,10,10,10,10,10,10,0,100,0,0
zhac_snpc_imp_f_17_,NPC,Larienna Varro,zhac_aa_npcscript_1,10,Imperial,25,Clothier,zhac_settlement,0,No,No,,50,Default (Red),b_n_imperial_f_hair_04,b_n_imperial_f_head_03,No,No,10,10,10,10,10,10,10,10,0,100,0,0
zhac_snpc_imp_m_01_,NPC,Larisus Valodius,zhac_aa_npcscript_1,10,Imperial,24,Clothier,zhac_settlement,0,No,No,,50,Default (Red),b_n_imperial_m_hair_00,b_n_imperial_m_head_02,No,No,10,10,10,10,10,10,10,10,0,100,0,0
zhac_snpc_orc_f_08_,NPC,Lazgar gra-Shagrak,zhac_aa_npcscript_1,10,Orc,25,Clothier,zhac_settlement,0,No,No,,50,Default (Red),b_n_orc_f_hair05,b_n_orc_f_head_02,No,No,10,10,10,10,10,10,10,10,0,100,0,0
zhac_snpc_orc_f_06_,NPC,Lazgar gra-Uzgurn,zhac_aa_npcscript_1,10,Orc,25,Clothier,zhac_settlement,0,No,No,,50,Default (Red),b_n_orc_f_hair01,b_n_orc_f_head_01,No,No,10,10,10,10,10,10,10,10,0,100,0,0
zhac_snpc_redg_f_08_,NPC,Lette,zhac_aa_npcscript_1,10,Redguard,25,Clothier,zhac_settlement,0,No,No,,50,Default (Red),b_n_redguard_f_hair_02,b_n_redguard_f_head_02,No,No,10,10,10,10,10,10,10,10,0,100,0,0
zhac_snpc_redg_m_17_,NPC,Lidebras,zhac_aa_npcscript_1,10,Redguard,24,Clothier,zhac_settlement,0,No,No,,50,Default (Red),b_n_redguard_m_hair_01,b_n_redguard_m_head_01,No,No,10,10,10,10,10,10,10,10,0,100,0,0
zhac_snpc_bret_f_17_,NPC,Lielle Retene,zhac_aa_npcscript_1,10,Breton,25,Clothier,zhac_settlement,0,No,No,,50,Default (Red),b_n_breton_f_hair_02,b_n_breton_f_head_01,No,No,10,10,10,10,10,10,10,10,0,100,0,0
zhac_snpc_bret_f_01_,NPC,Lirielle Mon,zhac_aa_npcscript_1,10,Breton,25,Clothier,zhac_settlement,0,No,No,,50,Default (Red),b_n_breton_f_hair_05,b_n_breton_f_head_03,No,No,10,10,10,10,10,10,10,10,0,100,0,0
zhac_snpc_nord_f_18_,NPC,Lisaa,zhac_aa_npcscript_1,10,Nord,25,Clothier,zhac_settlement,0,No,No,,50,Default (Red),b_n_nord_f_hair_02,b_n_nord_f_head_05,No,No,10,10,10,10,10,10,10,10,0,100,0,0
zhac_snpc_dunm_m_20_,NPC,Llaalam Girano,zhac_aa_npcscript_1,10,Dark Elf,24,Clothier,zhac_settlement,0,No,No,,50,Default (Red),b_n_dark elf_m_hair_15,b_n_dark elf_m_head_06,No,No,10,10,10,10,10,10,10,10,0,100,0,0
zhac_snpc_helf_f_02_,NPC,Lorurmend,zhac_aa_npcscript_1,10,High Elf,25,Clothier,zhac_settlement,0,No,No,,50,Default (Red),b_n_high elf_f_hair_04,b_n_high elf_f_head_04,No,No,10,10,10,10,10,10,10,10,0,100,0,0
zhac_snpc_bret_m_08_,NPC,Louis Bierles,zhac_aa_npcscript_1,10,Breton,24,Clothier,zhac_settlement,0,No,No,,50,Default (Red),b_n_breton_m_hair_02,B_N_Breton_M_Head_07,No,No,10,10,10,10,10,10,10,10,0,100,0,0
zhac_snpc_khaj_m_13_,NPC,Ma'Khar,zhac_aa_npcscript_1,10,Khajiit,24,Clothier,zhac_settlement,0,No,No,base_animKnA.nif,50,Default (Red),b_n_khajiit_m_hair01,b_n_khajiit_m_head_01,No,No,10,10,10,10,10,10,10,10,0,100,0,0
zhac_snpc_imp_f_02_,NPC,Maesa Varro,zhac_aa_npcscript_1,10,Imperial,25,Clothier,zhac_settlement,0,No,No,,50,Default (Red),b_n_imperial_f_hair_05,b_n_imperial_f_head_03,No,No,10,10,10,10,10,10,10,10,0,100,0,0
zhac_snpc_bret_f_04_,NPC,Malielle Phiencel,zhac_aa_npcscript_1,10,Breton,25,Clothier,zhac_settlement,0,No,No,,50,Default (Red),b_n_breton_f_hair_04,b_n_breton_f_head_04,No,No,10,10,10,10,10,10,10,10,0,100,0,0
zhac_snpc_bret_m_14_,NPC,Manis Madach,zhac_aa_npcscript_1,10,Breton,24,Clothier,zhac_settlement,0,No,No,,50,Default (Red),b_n_breton_m_hair_01,b_n_breton_m_head_01,No,No,10,10,10,10,10,10,10,10,0,100,0,0
zhac_snpc_welf_f_13_,NPC,Mara,zhac_aa_npcscript_1,10,Wood Elf,25,Clothier,zhac_settlement,0,No,No,,50,Default (Red),b_n_wood elf_f_hair_02,b_n_wood elf_f_head_02,No,No,10,10,10,10,10,10,10,10,0,100,0,0
zhac_snpc_bret_f_13_,NPC,Maranique Jeline,zhac_aa_npcscript_1,10,Breton,25,Clothier,zhac_settlement,0,No,No,,50,Default (Red),b_n_breton_f_hair_02,b_n_breton_f_head_02,No,No,10,10,10,10,10,10,10,10,0,100,0,0
zhac_snpc_bret_f_12_,NPC,Marelle Rirne,zhac_aa_npcscript_1,10,Breton,25,Clothier,zhac_settlement,0,No,No,,50,Default (Red),b_n_breton_f_hair_05,b_n_breton_f_head_05,No,No,10,10,10,10,10,10,10,10,0,100,0,0
zhac_snpc_bret_f_18_,NPC,Masalinie Kirbatha,zhac_aa_npcscript_1,10,Breton,25,Clothier,zhac_settlement,0,No,No,,50,Default (Red),b_n_breton_f_hair_03,B_N_Breton_F_Head_06,No,No,10,10,10,10,10,10,10,10,0,100,0,0
zhac_snpc_imp_m_13_,NPC,Matus Jullalian,zhac_aa_npcscript_1,10,Imperial,24,Clothier,zhac_settlement,0,No,No,,50,Default (Red),b_n_imperial_m_hair_00,b_n_imperial_m_head_03,No,No,10,10,10,10,10,10,10,10,0,100,0,0
zhac_snpc_dunm_f_19_,NPC,Medila Uvulas,zhac_aa_npcscript_1,10,Dark Elf,25,Clothier,zhac_settlement,0,No,No,,50,Default (Red),b_n_dark elf_f_hair_04,b_n_dark elf_f_head_08,No,No,10,10,10,10,10,10,10,10,0,100,0,0
zhac_snpc_welf_m_01_,NPC,Meldor,zhac_aa_npcscript_1,10,Wood Elf,24,Clothier,zhac_settlement,0,No,No,,50,Default (Red),b_n_wood elf_m_hair_04,b_n_wood elf_m_head_03,No,No,10,10,10,10,10,10,10,10,0,100,0,0
zhac_snpc_bret_f_11_,NPC,Melie Auline,zhac_aa_npcscript_1,10,Breton,25,Clothier,zhac_settlement,0,No,No,,50,Default (Red),b_n_breton_f_hair_02,b_n_breton_f_head_04,No,No,10,10,10,10,10,10,10,10,0,100,0,0
zhac_snpc_dunm_f_04_,NPC,Melvure Duro,zhac_aa_npcscript_1,10,Dark Elf,25,Clothier,zhac_settlement,0,No,No,,50,Default (Red),b_n_dark elf_f_hair_22,b_n_dark elf_f_head_07,No,No,10,10,10,10,10,10,10,10,0,100,0,0
zhac_snpc_bret_m_01_,NPC,Merthierry Leoriane,zhac_aa_npcscript_1,10,Breton,24,Clothier,zhac_settlement,0,No,No,,50,Default (Red),b_n_breton_m_hair_03,b_n_breton_m_head_05,No,No,10,10,10,10,10,10,10,10,0,100,0,0
zhac_snpc_helf_m_19_,NPC,Meryaran,zhac_aa_npcscript_1,10,High Elf,24,Clothier,zhac_settlement,0,No,No,,50,Default (Red),b_n_high elf_m_hair_03,b_n_imperial_m_head_05,No,No,10,10,10,10,10,10,10,10,0,100,0,0
zhac_snpc_welf_f_06_,NPC,Milbereth,zhac_aa_npcscript_1,10,Wood Elf,25,Clothier,zhac_settlement,0,No,No,,50,Default (Red),b_n_wood elf_f_hair_04,b_n_wood elf_f_head_01,No,No,10,10,10,10,10,10,10,10,0,100,0,0
zhac_snpc_dunm_f_07_,NPC,Milvela Hlen,zhac_aa_npcscript_1,10,Dark Elf,25,Clothier,zhac_settlement,0,No,No,,50,Default (Red),b_n_dark elf_f_hair_18,b_n_dark elf_f_head_05,No,No,10,10,10,10,10,10,10,10,0,100,0,0
zhac_snpc_dunm_f_01_,NPC,Miraso Dralas,zhac_aa_npcscript_1,10,Dark Elf,25,Clothier,zhac_settlement,0,No,No,,50,Default (Red),b_n_dark elf_f_hair_18,b_n_dark elf_f_head_10,No,No,10,10,10,10,10,10,10,10,0,100,0,0
zhac_snpc_redg_f_17_,NPC,Mirisa,zhac_aa_npcscript_1,10,Redguard,25,Clothier,zhac_settlement,0,No,No,,50,Default (Red),b_n_redguard_f_hair_04,b_n_redguard_f_head_02,No,No,10,10,10,10,10,10,10,10,0,100,0,0
zhac_snpc_arg_m_15_,NPC,Miun-Gei,zhac_aa_npcscript_1,10,Argonian,24,Clothier,zhac_settlement,0,No,No,base_animKnA.nif,50,Default (Red),b_n_argonian_m_hair03,b_n_argonian_m_head_02,No,No,10,10,10,10,10,10,10,10,0,100,0,0
zhac_snpc_orc_f_15_,NPC,Mogak gra-Ushug,zhac_aa_npcscript_1,10,Orc,25,Clothier,zhac_settlement,0,No,No,,50,Default (Red),b_n_orc_f_hair01,b_n_orc_f_head_01,No,No,10,10,10,10,10,10,10,10,0,100,0,0
zhac_snpc_orc_m_19_,NPC,Mol gro-Bol,zhac_aa_npcscript_1,10,Orc,24,Clothier,zhac_settlement,0,No,No,,50,Default (Red),b_n_orc_m_hair_02,b_n_orc_m_head_02,No,No,10,10,10,10,10,10,10,10,0,100,0,0
zhac_snpc_redg_f_06_,NPC,Monsey,zhac_aa_npcscript_1,10,Redguard,25,Clothier,zhac_settlement,0,No,No,,50,Default (Red),b_n_redguard_f_hair_02,b_n_redguard_f_head_01,No,No,10,10,10,10,10,10,10,10,0,100,0,0
zhac_snpc_helf_m_15_,NPC,Moranarg,zhac_aa_npcscript_1,10,High Elf,24,Clothier,zhac_settlement,0,No,No,,50,Default (Red),b_n_high elf_m_hair_03,b_n_high elf_m_head_01,No,No,10,10,10,10,10,10,10,10,0,100,0,0
zhac_snpc_imp_m_09_,NPC,Moris Jannus,zhac_aa_npcscript_1,10,Imperial,24,Clothier,zhac_settlement,0,No,No,,50,Default (Red),b_n_imperial_m_hair_00,b_n_imperial_m_head_01,No,No,10,10,10,10,10,10,10,10,0,100,0,0
zhac_snpc_welf_m_14_,NPC,Morth,zhac_aa_npcscript_1,10,Wood Elf,24,Clothier,zhac_settlement,0,No,Yes,,50,Default (Red),b_n_wood elf_m_hair_03,b_n_wood elf_m_head_01,No,No,10,10,10,10,10,10,10,10,0,100,0,0
zhac_snpc_dunm_f_16_,NPC,Movisa Varen,zhac_aa_npcscript_1,10,Dark Elf,25,Clothier,zhac_settlement,0,No,No,,50,Default (Red),b_n_dark elf_f_hair_14,b_n_dark elf_f_head_08,No,No,10,10,10,10,10,10,10,10,0,100,0,0
zhac_snpc_bret_f_07_,NPC,Muriel Ergalla,zhac_aa_npcscript_1,10,Breton,25,Clothier,zhac_settlement,0,No,No,,50,Default (Red),b_n_breton_f_hair_02,b_n_breton_f_head_03,No,No,10,10,10,10,10,10,10,10,0,100,0,0
zhac_snpc_arg_f_10_,NPC,Muz-Ra,zhac_aa_npcscript_1,10,Argonian,25,Clothier,zhac_settlement,0,No,No,base_animKnA.nif,50,Default (Red),b_n_argonian_f_hair04,b_n_argonian_f_head_01,No,No,10,10,10,10,10,10,10,10,0,100,0,0
zhac_snpc_redg_m_13_,NPC,Nachael,zhac_aa_npcscript_1,10,Redguard,24,Clothier,zhac_settlement,0,No,No,,50,Default (Red),b_n_redguard_m_hair_02,b_n_redguard_m_head_03,No,No,10,10,10,10,10,10,10,10,0,100,0,0
zhac_snpc_dunm_m_01_,NPC,Nads Dralen,zhac_aa_npcscript_1,10,Dark Elf,24,Clothier,zhac_settlement,0,No,No,,50,Default (Red),b_n_dark elf_m_hair_13,b_n_dark elf_m_head_01,No,No,10,10,10,10,10,10,10,10,0,100,0,0
zhac_snpc_welf_f_05_,NPC,Nael,zhac_aa_npcscript_1,10,Wood Elf,25,Clothier,zhac_settlement,0,No,No,,50,Default (Red),b_n_wood elf_f_hair_02,b_n_wood elf_f_head_05,No,No,10,10,10,10,10,10,10,10,0,100,0,0
zhac_snpc_helf_f_17_,NPC,Nalcarya,zhac_aa_npcscript_1,10,High Elf,25,Clothier,zhac_settlement,0,No,No,,50,Default (Red),b_n_high elf_f_hair_04,b_n_high elf_f_head_02,No,No,10,10,10,10,10,10,10,10,0,100,0,0
zhac_snpc_imp_m_11_,NPC,Namanian Crunus,zhac_aa_npcscript_1,10,Imperial,24,Clothier,zhac_settlement,0,No,No,,50,Default (Red),b_n_imperial_m_hair_05,B_N_Imperial_M_Head_07,No,No,10,10,10,10,10,10,10,10,0,100,0,0
zhac_snpc_redg_f_11_,NPC,Nanine,zhac_aa_npcscript_1,10,Redguard,25,Clothier,zhac_settlement,0,No,No,,50,Default (Red),b_n_redguard_f_hair_02,b_n_redguard_f_head_04,No,No,10,10,10,10,10,10,10,10,0,100,0,0
zhac_snpc_redg_f_13_,NPC,Nanine,zhac_aa_npcscript_1,10,Redguard,25,Clothier,zhac_settlement,0,No,No,,50,Default (Red),b_n_redguard_f_hair_03,b_n_redguard_f_head_04,No,No,10,10,10,10,10,10,10,10,0,100,0,0
zhac_snpc_welf_f_04_,NPC,Nathien,zhac_aa_npcscript_1,10,Wood Elf,25,Clothier,zhac_settlement,0,No,No,,50,Default (Red),b_n_wood elf_f_hair_01,b_n_wood elf_f_head_01,No,No,10,10,10,10,10,10,10,10,0,100,0,0
zhac_snpc_imp_f_15_,NPC,Nebia Galenus,zhac_aa_npcscript_1,10,Imperial,25,Clothier,zhac_settlement,0,No,No,,50,Default (Red),B_N_Imperial_F_Hair_07,b_n_imperial_f_head_04,No,No,10,10,10,10,10,10,10,10,0,100,0,0
zhac_snpc_welf_m_16_,NPC,Nedhelas,zhac_aa_npcscript_1,10,Wood Elf,24,Clothier,zhac_settlement,0,No,No,,50,Default (Red),b_n_wood elf_m_hair_02,B_N_Wood Elf_M_Head_07,No,No,10,10,10,10,10,10,10,10,0,100,0,0
zhac_snpc_welf_m_09_,NPC,Nedhelorn,zhac_aa_npcscript_1,10,Wood Elf,24,Clothier,zhac_settlement,0,No,No,,50,Default (Red),b_n_wood elf_m_hair_02,b_n_wood elf_m_head_02,No,No,10,10,10,10,10,10,10,10,0,100,0,0
zhac_snpc_dunm_f_15_,NPC,Nelso Sedrethi,zhac_aa_npcscript_1,10,Dark Elf,25,Clothier,zhac_settlement,0,No,No,,50,Default (Red),b_n_dark elf_f_hair_01,b_n_dark elf_f_head_02,No,No,10,10,10,10,10,10,10,10,0,100,0,0
zhac_snpc_welf_f_20_,NPC,Nilioniel,zhac_aa_npcscript_1,10,Wood Elf,25,Clothier,zhac_settlement,0,No,No,,50,Default (Red),b_n_wood elf_f_hair_01,b_n_wood elf_f_head_04,No,No,10,10,10,10,10,10,10,10,0,100,0,0
zhac_snpc_imp_m_20_,NPC,Nitterius Rulician,zhac_aa_npcscript_1,10,Imperial,24,Clothier,zhac_settlement,0,No,No,,50,Default (Red),b_n_imperial_m_hair_03,b_n_imperial_m_head_04,No,No,10,10,10,10,10,10,10,10,0,100,0,0
zhac_snpc_bret_m_06_,NPC,Noleon Adrard,zhac_aa_npcscript_1,10,Breton,24,Clothier,zhac_settlement,0,No,No,,50,Default (Red),b_n_breton_m_hair_02,b_n_breton_m_head_03,No,No,10,10,10,10,10,10,10,10,0,100,0,0
zhac_snpc_imp_m_15_,NPC,Nolus Catius,zhac_aa_npcscript_1,10,Imperial,24,Clothier,zhac_settlement,0,No,No,,50,Default (Red),b_n_imperial_m_hair_01,b_n_imperial_m_head_02,No,No,10,10,10,10,10,10,10,10,0,100,0,0
zhac_snpc_helf_m_18_,NPC,Norionil,zhac_aa_npcscript_1,10,High Elf,24,Clothier,zhac_settlement,0,No,No,,50,Default (Red),b_n_high elf_m_hair_03,b_n_high elf_m_head_02,No,No,10,10,10,10,10,10,10,10,0,100,0,0
zhac_snpc_arg_f_01_,NPC,Nuralg,zhac_aa_npcscript_1,10,Argonian,25,Clothier,zhac_settlement,0,No,No,base_animKnA.nif,50,Default (Red),b_n_argonian_f_hair01,b_n_argonian_f_head_01,No,No,10,10,10,10,10,10,10,10,0,100,0,0
zhac_snpc_orc_m_10_,NPC,Ogrumbu gro-Shagdulg,zhac_aa_npcscript_1,10,Orc,24,Clothier,zhac_settlement,0,No,No,,50,Default (Red),b_n_orc_m_hair_03,B_N_Orc_M_Head_04,No,No,10,10,10,10,10,10,10,10,0,100,0,0
zhac_snpc_arg_f_03_,NPC,On-Wan,zhac_aa_npcscript_1,10,Argonian,25,Clothier,zhac_settlement,0,No,No,base_animKnA.nif,50,Default (Red),b_n_argonian_f_hair05,b_n_argonian_f_head_01,No,No,10,10,10,10,10,10,10,10,0,100,0,0
zhac_snpc_arg_f_12_,NPC,Onasha,zhac_aa_npcscript_1,10,Argonian,25,Clothier,zhac_settlement,0,No,No,base_animKnA.nif,50,Default (Red),b_n_argonian_f_hair05,b_n_argonian_f_head_02,No,No,10,10,10,10,10,10,10,10,0,100,0,0
zhac_snpc_nord_f_17_,NPC,Ondi,zhac_aa_npcscript_1,10,Nord,25,Clothier,zhac_settlement,0,No,No,,50,Default (Red),b_n_nord_f_hair_03,B_N_Nord_F_Head_08,No,No,10,10,10,10,10,10,10,10,0,100,0,0
zhac_snpc_nord_m_07_,NPC,Ormvard,zhac_aa_npcscript_1,10,Nord,24,Clothier,zhac_settlement,0,No,No,,50,Default (Red),b_n_nord_m_hair03,b_n_nord_m_head_03,No,No,10,10,10,10,10,10,10,10,0,100,0,0
zhac_snpc_imp_f_07_,NPC,Pellecia Menania,zhac_aa_npcscript_1,10,Imperial,25,Clothier,zhac_settlement,0,No,No,,50,Default (Red),b_n_imperial_f_hair_01,b_n_imperial_f_head_01,No,No,10,10,10,10,10,10,10,10,0,100,0,0
zhac_snpc_welf_f_14_,NPC,Penglithil,zhac_aa_npcscript_1,10,Wood Elf,25,Clothier,zhac_settlement,0,No,No,,50,Default (Red),b_n_wood elf_f_hair_04,b_n_wood elf_f_head_02,No,No,10,10,10,10,10,10,10,10,0,100,0,0
zhac_snpc_bret_m_19_,NPC,Phane Yvienne,zhac_aa_npcscript_1,10,Breton,24,Clothier,zhac_settlement,0,No,No,,50,Default (Red),b_n_breton_m_hair_03,B_N_Breton_M_Head_07,No,No,10,10,10,10,10,10,10,10,0,100,0,0
zhac_snpc_helf_m_14_,NPC,Qorwynn,zhac_aa_npcscript_1,10,High Elf,24,Clothier,zhac_settlement,0,No,No,,50,Default (Red),b_n_high elf_m_hair_05,b_n_high elf_m_head_02,No,No,10,10,10,10,10,10,10,10,0,100,0,0
zhac_snpc_helf_m_17_,NPC,Qorwynn,zhac_aa_npcscript_1,10,High Elf,24,Clothier,zhac_settlement,0,No,No,,50,Default (Red),b_n_high elf_m_hair_05,b_n_high elf_m_head_03,No,No,10,10,10,10,10,10,10,10,0,100,0,0
zhac_snpc_khaj_m_18_,NPC,Ra'Tesh,zhac_aa_npcscript_1,10,Khajiit,24,Clothier,zhac_settlement,0,No,No,base_animKnA.nif,50,Default (Red),b_n_khajiit_m_hair03,B_N_Khajiit_M_Head_04,No,No,10,10,10,10,10,10,10,10,0,100,0,0
zhac_snpc_khaj_m_16_,NPC,Ra'Virr,zhac_aa_npcscript_1,10,Khajiit,24,Clothier,zhac_settlement,0,No,No,base_animKnA.nif,50,Default (Red),b_n_khajiit_m_hair05,b_n_khajiit_m_head_02,No,No,10,10,10,10,10,10,10,10,0,100,0,0
zhac_snpc_nord_m_08_,NPC,Rakoslod,zhac_aa_npcscript_1,10,Nord,24,Clothier,zhac_settlement,0,No,No,,50,Default (Red),b_n_nord_m_hair03,b_n_nord_m_head_04,No,No,10,10,10,10,10,10,10,10,0,100,0,0
zhac_snpc_dunm_m_07_,NPC,Ralen Bereloth,zhac_aa_npcscript_1,10,Dark Elf,24,Clothier,zhac_settlement,0,No,No,,50,Default (Red),b_n_dark elf_m_hair_04,b_n_dark elf_m_head_06,No,No,10,10,10,10,10,10,10,10,0,100,0,0
zhac_snpc_nord_m_12_,NPC,Ranmir,zhac_aa_npcscript_1,10,Nord,24,Clothier,zhac_settlement,0,No,No,,50,Default (Red),b_n_nord_m_hair00,b_n_nord_m_head_01,No,No,10,10,10,10,10,10,10,10,0,100,0,0
zhac_snpc_arg_m_19_,NPC,Rasha,zhac_aa_npcscript_1,10,Argonian,24,Clothier,zhac_settlement,0,No,No,base_animKnA.nif,50,Default (Red),b_n_argonian_m_hair02,b_n_argonian_m_head_01,No,No,10,10,10,10,10,10,10,10,0,100,0,0
zhac_snpc_bret_f_02_,NPC,Relie Rolston,zhac_aa_npcscript_1,10,Breton,25,Clothier,zhac_settlement,0,No,No,,50,Default (Red),b_n_breton_f_hair_05,b_n_breton_f_head_03,No,No,10,10,10,10,10,10,10,10,0,100,0,0
zhac_snpc_redg_f_16_,NPC,Relinda,zhac_aa_npcscript_1,10,Redguard,25,Clothier,zhac_settlement,0,No,No,,50,Default (Red),b_n_redguard_f_hair_01,b_n_redguard_f_head_01,No,No,10,10,10,10,10,10,10,10,0,100,0,0
zhac_snpc_bret_m_15_,NPC,Rerlas Mornardl,zhac_aa_npcscript_1,10,Breton,24,Clothier,zhac_settlement,0,No,No,,50,Default (Red),b_n_breton_m_hair_00,B_N_Breton_M_Head_07,No,No,10,10,10,10,10,10,10,10,0,100,0,0
zhac_snpc_khaj_m_01_,NPC,Ri'Darsha,zhac_aa_npcscript_1,10,Khajiit,24,Clothier,zhac_settlement,0,No,No,base_animKnA.nif,50,Default (Red),b_n_khajiit_m_hair03,b_n_khajiit_m_head_03,No,No,10,10,10,10,10,10,10,10,0,100,0,0
zhac_snpc_helf_m_05_,NPC,Rimintil,zhac_aa_npcscript_1,10,High Elf,24,Clothier,zhac_settlement,0,No,No,,50,Default (Red),b_n_high elf_m_hair_02,b_n_high elf_m_head_03,No,No,10,10,10,10,10,10,10,10,0,100,0,0
zhac_snpc_nord_f_12_,NPC,Ringvild,zhac_aa_npcscript_1,10,Nord,25,Clothier,zhac_settlement,0,No,No,,50,Default (Red),b_n_nord_f_hair_01,b_n_nord_f_head_02,No,No,10,10,10,10,10,10,10,10,0,100,0,0
zhac_snpc_nord_f_08_,NPC,Risi,zhac_aa_npcscript_1,10,Nord,25,Clothier,zhac_settlement,0,No,No,,50,Default (Red),b_n_nord_f_hair_02,b_n_nord_f_head_02,No,No,10,10,10,10,10,10,10,10,0,100,0,0
zhac_snpc_redg_f_07_,NPC,Rithleen,zhac_aa_npcscript_1,10,Redguard,25,Clothier,zhac_settlement,0,No,No,,50,Default (Red),b_n_redguard_f_hair_02,b_n_redguard_f_head_01,No,No,10,10,10,10,10,10,10,10,0,100,0,0
zhac_snpc_nord_m_17_,NPC,Rolf,zhac_aa_npcscript_1,10,Nord,24,Clothier,zhac_settlement,0,No,No,,50,Default (Red),b_n_nord_m_hair03,b_n_nord_m_head_03,No,No,10,10,10,10,10,10,10,10,0,100,0,0
zhac_snpc_imp_f_20_,NPC,Ruccia Sosia,zhac_aa_npcscript_1,10,Imperial,25,Clothier,zhac_settlement,0,No,No,,50,Default (Red),b_n_imperial_f_hair_01,b_n_imperial_f_head_04,No,No,10,10,10,10,10,10,10,10,0,100,0,0
zhac_snpc_orc_f_04_,NPC,Rulfim gra-Shadbuk,zhac_aa_npcscript_1,10,Orc,25,Clothier,zhac_settlement,0,No,No,,50,Default (Red),b_n_orc_f_hair02,b_n_orc_f_head_03,No,No,10,10,10,10,10,10,10,10,0,100,0,0
zhac_snpc_nord_f_16_,NPC,Runa,zhac_aa_npcscript_1,10,Nord,25,Clothier,zhac_settlement,0,No,No,,50,Default (Red),b_n_nord_f_hair_01,b_n_nord_f_head_04,No,No,10,10,10,10,10,10,10,10,0,100,0,0
zhac_snpc_khaj_m_04_,NPC,S'Raverr,zhac_aa_npcscript_1,10,Khajiit,24,Clothier,zhac_settlement,0,No,No,base_animKnA.nif,50,Default (Red),b_n_khajiit_m_hair05,b_n_khajiit_m_head_03,No,No,10,10,10,10,10,10,10,10,0,100,0,0
zhac_snpc_khaj_m_14_,NPC,S'Raverr,zhac_aa_npcscript_1,10,Khajiit,24,Clothier,zhac_settlement,0,No,No,base_animKnA.nif,50,Default (Red),b_n_khajiit_m_hair03,B_N_Khajiit_M_Head_04,No,No,10,10,10,10,10,10,10,10,0,100,0,0
zhac_snpc_khaj_m_11_,NPC,S'virr,zhac_aa_npcscript_1,10,Khajiit,24,Clothier,zhac_settlement,0,No,No,base_animKnA.nif,40,Default (Red),b_n_khajiit_m_hair04,b_n_khajiit_m_head_02,No,No,10,10,10,10,10,10,10,10,0,100,0,0
zhac_snpc_imp_m_02_,NPC,Saenus Fulbenus,zhac_aa_npcscript_1,10,Imperial,24,Clothier,zhac_settlement,0,No,No,,30,Default (Red),b_n_imperial_m_hair_00,b_n_imperial_m_head_05,No,No,10,10,10,10,10,10,10,10,0,100,0,0
zhac_snpc_dunm_m_12_,NPC,Sathas Uvelas,zhac_aa_npcscript_1,10,Dark Elf,24,Clothier,zhac_settlement,0,No,No,,50,Default (Red),b_n_dark elf_m_hair_03,b_n_dark elf_m_head_15,No,No,10,10,10,10,10,10,10,10,0,100,0,0
zhac_snpc_imp_m_14_,NPC,Sauleius Liore,zhac_aa_npcscript_1,10,Imperial,24,Clothier,zhac_settlement,0,No,No,,50,Default (Red),b_n_imperial_m_hair_04,b_n_imperial_m_head_05,No,No,10,10,10,10,10,10,10,10,0,100,0,0
zhac_snpc_dunm_f_11_,NPC,Savile Faralen,zhac_aa_npcscript_1,10,Dark Elf,25,Clothier,zhac_settlement,0,No,No,,50,Default (Red),b_n_dark elf_f_hair_16,b_n_dark elf_f_head_01,No,No,10,10,10,10,10,10,10,10,0,100,0,0
zhac_snpc_imp_m_04_,NPC,Segunivus Lusius,zhac_aa_npcscript_1,10,Imperial,24,Clothier,zhac_settlement,0,No,No,,50,Default (Red),B_N_Imperial_M_Hair_08,B_N_Imperial_M_Head_07,No,No,10,10,10,10,10,10,10,10,0,100,0,0
zhac_snpc_imp_f_06_,NPC,Selvia Iulus,zhac_aa_npcscript_1,10,Imperial,25,Clothier,zhac_settlement,0,No,No,,50,Default (Red),b_n_imperial_f_hair_04,b_n_imperial_f_head_04,No,No,10,10,10,10,10,10,10,10,0,100,0,0
zhac_snpc_dunm_f_17_,NPC,Senise Nilvon,zhac_aa_npcscript_1,10,Dark Elf,25,Clothier,zhac_settlement,0,No,No,,50,Default (Red),b_n_dark elf_f_hair_18,b_n_dark elf_f_head_04,No,No,10,10,10,10,10,10,10,10,0,100,0,0
zhac_snpc_orc_f_09_,NPC,Shadbak gra-Dugul,zhac_aa_npcscript_1,10,Orc,25,Clothier,zhac_settlement,0,No,No,,50,Default (Red),b_n_orc_f_hair05,b_n_orc_f_head_01,No,No,10,10,10,10,10,10,10,10,0,100,0,0
zhac_snpc_orc_f_17_,NPC,Shagar gra-Uzuk,zhac_aa_npcscript_1,10,Orc,25,Clothier,zhac_settlement,0,No,No,,50,Default (Red),b_n_orc_f_hair02,b_n_orc_f_head_01,No,No,10,10,10,10,10,10,10,10,0,100,0,0
zhac_snpc_orc_m_05_,NPC,Shargam gro-Azorku,zhac_aa_npcscript_1,10,Orc,24,Clothier,zhac_settlement,0,No,No,,50,Default (Red),b_n_orc_m_hair_01,b_n_orc_m_head_01,No,No,10,10,10,10,10,10,10,10,0,100,0,0
zhac_snpc_orc_m_08_,NPC,Sharkub gro-Durga,zhac_aa_npcscript_1,10,Orc,24,Clothier,zhac_settlement,0,No,No,,50,Default (Red),b_n_orc_m_hair_05,b_n_orc_m_head_03,No,No,10,10,10,10,10,10,10,10,0,100,0,0
zhac_snpc_orc_m_09_,NPC,Sharkub gro-Skandar,zhac_aa_npcscript_1,10,Orc,24,Clothier,zhac_settlement,0,No,No,,50,Default (Red),b_n_orc_m_hair_04,b_n_orc_m_head_02,No,No,10,10,10,10,10,10,10,10,0,100,0,0
zhac_snpc_redg_m_02_,NPC,Shenk,zhac_aa_npcscript_1,10,Redguard,24,Clothier,zhac_settlement,0,No,No,,50,Default (Red),b_n_redguard_m_hair_03,b_n_redguard_m_head_04,No,No,10,10,10,10,10,10,10,10,0,100,0,0
zhac_snpc_khaj_f_04_,NPC,Shotherra,zhac_aa_npcscript_1,10,Khajiit,25,Clothier,zhac_settlement,0,No,No,base_animKnA.nif,50,Default (Red),b_n_khajiit_f_hair01,b_n_khajiit_f_head_01,No,No,10,10,10,10,10,10,10,10,0,100,0,0
zhac_snpc_orc_m_03_,NPC,Shulong gro-Skandar,zhac_aa_npcscript_1,10,Orc,24,Clothier,zhac_settlement,0,No,Yes,,50,Default (Red),b_n_orc_m_hair_02,B_N_Orc_M_Head_04,No,No,10,10,10,10,10,10,10,10,0,100,0,0
zhac_snpc_helf_m_07_,NPC,Sinyaramen,zhac_aa_npcscript_1,10,High Elf,24,Clothier,zhac_settlement,0,No,No,,50,Default (Red),b_n_high elf_m_hair_02,b_n_high elf_m_head_04,No,No,10,10,10,10,10,10,10,10,0,100,0,0
zhac_snpc_helf_f_18_,NPC,Sirilonwe,zhac_aa_npcscript_1,10,High Elf,25,Clothier,zhac_settlement,0,No,No,,50,Default (Red),b_n_high elf_f_hair_03,b_n_high elf_f_head_01,No,No,10,10,10,10,10,10,10,10,0,100,0,0
zhac_snpc_nord_m_01_,NPC,Sittar,zhac_aa_npcscript_1,10,Nord,24,Clothier,zhac_settlement,0,No,No,,50,Default (Red),b_n_nord_m_hair05,b_n_nord_m_head_03,No,No,10,10,10,10,10,10,10,10,0,100,0,0
zhac_snpc_nord_m_09_,NPC,Sjarnfid,zhac_aa_npcscript_1,10,Nord,24,Clothier,zhac_settlement,0,No,No,,50,Default (Red),b_n_nord_m_hair00,b_n_nord_m_head_01,No,No,10,10,10,10,10,10,10,10,0,100,0,0
zhac_snpc_arg_m_12_,NPC,Smart-Snake,zhac_aa_npcscript_1,10,Argonian,24,Clothier,zhac_settlement,0,No,No,base_animKnA.nif,50,Default (Red),b_n_argonian_m_hair03,b_n_argonian_m_head_02,No,No,10,10,10,10,10,10,10,10,0,100,0,0
zhac_snpc_arg_m_13_,NPC,Smart-Snake,zhac_aa_npcscript_1,10,Argonian,24,Clothier,zhac_settlement,0,No,No,base_animKnA.nif,50,Default (Red),b_n_argonian_m_hair03,b_n_argonian_m_head_02,No,No,10,10,10,10,10,10,10,10,0,100,0,0
zhac_snpc_arg_m_06_,NPC,Smokeskin-Killer,zhac_aa_npcscript_1,10,Argonian,24,Clothier,zhac_settlement,0,No,No,base_animKnA.nif,50,Default (Red),b_n_argonian_m_hair03,b_n_argonian_m_head_02,No,No,10,10,10,10,10,10,10,10,0,100,0,0
zhac_snpc_arg_m_11_,NPC,Smokeskin-Killer,zhac_aa_npcscript_1,10,Argonian,24,Clothier,zhac_settlement,0,No,No,base_animKnA.nif,50,Default (Red),b_n_argonian_m_hair03,b_n_argonian_m_head_02,No,No,10,10,10,10,10,10,10,10,0,100,0,0
zhac_snpc_arg_m_20_,NPC,Smokeskin-Killer,zhac_aa_npcscript_1,10,Argonian,24,Clothier,zhac_settlement,0,No,No,base_animKnA.nif,50,Default (Red),b_n_argonian_m_hair06,b_n_argonian_m_head_03,No,No,10,10,10,10,10,10,10,10,0,100,0,0
zhac_snpc_arg_f_11_,NPC,Snail-Tail,zhac_aa_npcscript_1,10,Argonian,25,Clothier,zhac_settlement,0,No,No,base_animKnA.nif,50,Default (Red),b_n_argonian_f_hair02,b_n_argonian_f_head_03,No,No,10,10,10,10,10,10,10,10,0,100,0,0
zhac_snpc_orc_m_11_,NPC,Snakha gro-Magar,zhac_aa_npcscript_1,10,Orc,24,Clothier,zhac_settlement,0,No,No,,50,Default (Red),b_n_orc_m_hair_05,b_n_orc_m_head_01,No,No,10,10,10,10,10,10,10,10,0,100,0,0
zhac_snpc_nord_m_02_,NPC,Snedbrir,zhac_aa_npcscript_1,10,Nord,24,Clothier,zhac_settlement,0,No,No,,50,Default (Red),b_n_nord_m_hair01,b_n_nord_m_head_02,No,No,10,10,10,10,10,10,10,10,0,100,0,0
zhac_snpc_bret_m_17_,NPC,Socucius Endre,zhac_aa_npcscript_1,10,Breton,24,Clothier,zhac_settlement,0,No,No,,50,Default (Red),b_n_breton_m_hair_05,b_n_breton_m_head_06,No,No,10,10,10,10,10,10,10,10,0,100,0,0
zhac_snpc_dunm_f_18_,NPC,Sodrara Sethri,zhac_aa_npcscript_1,10,Dark Elf,25,Clothier,zhac_settlement,0,No,No,,50,Default (Red),b_n_dark elf_f_hair_02,b_n_dark elf_f_head_01,No,No,10,10,10,10,10,10,10,10,0,100,0,0
zhac_snpc_helf_f_08_,NPC,Sondaale,zhac_aa_npcscript_1,10,High Elf,25,Clothier,zhac_settlement,0,No,No,,50,Default (Red),b_n_high elf_f_hair_04,b_n_high elf_f_head_04,No,No,10,10,10,10,10,10,10,10,0,100,0,0
zhac_snpc_redg_m_05_,NPC,Sorian,zhac_aa_npcscript_1,10,Redguard,24,Clothier,zhac_settlement,0,No,No,,50,Default (Red),b_n_redguard_m_hair_01,b_n_redguard_m_head_01,No,No,10,10,10,10,10,10,10,10,0,100,0,0
zhac_snpc_dunm_m_04_,NPC,Sortis Llendo,zhac_aa_npcscript_1,10,Dark Elf,24,Clothier,zhac_settlement,0,No,No,,50,Default (Red),b_n_dark elf_m_hair_02,b_n_dark elf_m_head_03,No,No,10,10,10,10,10,10,10,10,0,100,0,0
zhac_snpc_redg_m_16_,NPC,Stargel,zhac_aa_npcscript_1,10,Redguard,24,Clothier,zhac_settlement,0,No,No,,50,Default (Red),b_n_redguard_m_hair_00,b_n_redguard_m_head_01,No,No,10,10,10,10,10,10,10,10,0,100,0,0
zhac_snpc_redg_m_12_,NPC,Sterdecan,zhac_aa_npcscript_1,10,Redguard,24,Clothier,zhac_settlement,0,No,No,,50,Default (Red),b_n_redguard_m_hair_03,b_n_redguard_m_head_02,No,No,10,10,10,10,10,10,10,10,0,100,0,0
zhac_snpc_redg_f_03_,NPC,Sulesa,zhac_aa_npcscript_1,10,Redguard,25,Clothier,zhac_settlement,0,No,No,,50,Default (Red),b_n_redguard_f_hair_04,b_n_redguard_f_head_04,No,No,10,10,10,10,10,10,10,10,0,100,0,0
zhac_snpc_imp_f_01_,NPC,Syloria Maria,zhac_aa_npcscript_1,10,Imperial,25,Clothier,zhac_settlement,0,No,No,,50,Default (Red),b_n_imperial_f_hair_01,b_n_imperial_f_head_05,No,No,10,10,10,10,10,10,10,10,0,100,0,0
zhac_snpc_imp_f_09_,NPC,Syloria Statlilia,zhac_aa_npcscript_1,10,Imperial,25,Clothier,zhac_settlement,0,No,Yes,,50,Default (Red),b_n_imperial_f_hair_02,b_n_imperial_f_head_01,No,No,10,10,10,10,10,10,10,10,0,100,0,0
zhac_snpc_arg_m_18_,NPC,Teegla,zhac_aa_npcscript_1,10,Argonian,24,Clothier,zhac_settlement,0,No,No,base_animKnA.nif,50,Default (Red),b_n_argonian_m_hair03,b_n_argonian_m_head_02,No,No,10,10,10,10,10,10,10,10,0,100,0,0
zhac_snpc_helf_f_09_,NPC,Tenyeminwe,zhac_aa_npcscript_1,10,High Elf,25,Clothier,zhac_settlement,0,No,No,,50,Default (Red),b_n_high elf_f_hair_04,b_n_high elf_f_head_05,No,No,10,10,10,10,10,10,10,10,0,100,0,0
zhac_snpc_arg_f_05_,NPC,Tern-Feather,zhac_aa_npcscript_1,10,Argonian,25,Clothier,zhac_settlement,0,No,No,base_animKnA.nif,50,Default (Red),b_n_argonian_f_hair05,b_n_argonian_f_head_03,No,No,10,10,10,10,10,10,10,10,0,100,0,0
zhac_snpc_arg_f_09_,NPC,Tern-Feather,zhac_aa_npcscript_1,10,Argonian,25,Clothier,zhac_settlement,0,No,No,base_animKnA.nif,50,Default (Red),b_n_argonian_f_hair03,b_n_argonian_f_head_03,No,No,10,10,10,10,10,10,10,10,0,100,0,0
zhac_snpc_arg_f_14_,NPC,Tern-Feather,zhac_aa_npcscript_1,10,Argonian,25,Clothier,zhac_settlement,0,No,No,base_animKnA.nif,50,Default (Red),b_n_argonian_f_hair03,b_n_argonian_f_head_03,No,No,10,10,10,10,10,10,10,10,0,100,0,0
zhac_snpc_dunm_m_09_,NPC,Thadar Herandus,zhac_aa_npcscript_1,10,Dark Elf,24,Clothier,zhac_settlement,0,No,No,,50,Default (Red),b_n_dark elf_m_hair_13,b_n_dark elf_m_head_10,No,No,10,10,10,10,10,10,10,10,0,100,0,0
zhac_snpc_welf_f_16_,NPC,Thaeril,zhac_aa_npcscript_1,10,Wood Elf,25,Clothier,zhac_settlement,0,No,No,,50,Default (Red),b_n_wood elf_f_hair_02,b_n_wood elf_f_head_03,No,No,10,10,10,10,10,10,10,10,0,100,0,0
zhac_snpc_khaj_m_03_,NPC,Thengil,zhac_aa_npcscript_1,10,Khajiit,24,Clothier,zhac_settlement,0,No,No,base_animKnA.nif,50,Default (Red),b_n_khajiit_m_hair01,b_n_khajiit_m_head_03,No,No,10,10,10,10,10,10,10,10,0,100,0,0
zhac_snpc_bret_m_18_,NPC,Thetrard Andre,zhac_aa_npcscript_1,10,Breton,24,Clothier,zhac_settlement,0,No,No,,50,Default (Red),b_n_breton_m_hair_05,B_N_Breton_M_Head_08,No,No,10,10,10,10,10,10,10,10,0,100,0,0
zhac_snpc_nord_m_05_,NPC,Thorek,zhac_aa_npcscript_1,10,Nord,24,Clothier,zhac_settlement,0,No,No,,50,Default (Red),b_n_nord_m_hair04,b_n_nord_m_head_05,No,No,10,10,10,10,10,10,10,10,0,100,0,0
zhac_snpc_welf_m_10_,NPC,Thoronor,zhac_aa_npcscript_1,10,Wood Elf,24,Clothier,zhac_settlement,0,No,No,,50,Default (Red),b_n_wood elf_m_hair_05,b_n_wood elf_m_head_05,No,No,10,10,10,10,10,10,10,10,0,100,0,0
zhac_snpc_arg_m_08_,NPC,Tongue-Toad,zhac_aa_npcscript_1,10,Argonian,24,Clothier,zhac_settlement,0,No,No,base_animKnA.nif,50,Default (Red),b_n_argonian_m_hair05,b_n_argonian_m_head_02,No,No,10,10,10,10,10,10,10,10,0,100,0,0
zhac_snpc_redg_m_20_,NPC,Tralan,zhac_aa_npcscript_1,10,Redguard,24,Clothier,zhac_settlement,0,No,No,,50,Default (Red),b_n_redguard_m_hair_02,b_n_redguard_m_head_05,No,No,10,10,10,10,10,10,10,10,0,100,0,0
zhac_snpc_arg_f_07_,NPC,Travelling-New-Woman,zhac_aa_npcscript_1,10,Argonian,25,Clothier,zhac_settlement,0,No,No,base_animKnA.nif,50,Default (Red),b_n_argonian_f_hair05,b_n_argonian_f_head_02,No,No,10,10,10,10,10,10,10,10,0,100,0,0
zhac_snpc_arg_f_18_,NPC,Travelling-New-Woman,zhac_aa_npcscript_1,10,Argonian,25,Clothier,zhac_settlement,0,No,No,base_animKnA.nif,50,Default (Red),b_n_argonian_f_hair03,b_n_argonian_f_head_03,No,No,10,10,10,10,10,10,10,10,0,100,0,0
zhac_snpc_arg_f_19_,NPC,Travelling-New-Woman,zhac_aa_npcscript_1,10,Argonian,25,Clothier,zhac_settlement,0,No,No,base_animKnA.nif,50,Default (Red),b_n_argonian_f_hair04,b_n_argonian_f_head_03,No,No,10,10,10,10,10,10,10,10,0,100,0,0
zhac_snpc_khaj_f_09_,NPC,Tsiya,zhac_aa_npcscript_1,10,Khajiit,25,Clothier,zhac_settlement,0,No,No,base_animKnA.nif,50,Default (Red),b_n_khajiit_f_hair02,b_n_khajiit_f_head_03,No,No,10,10,10,10,10,10,10,10,0,100,0,0
zhac_snpc_khaj_f_14_,NPC,Tsrazami,zhac_aa_npcscript_1,10,Khajiit,25,Clothier,zhac_settlement,0,No,No,base_animKnA.nif,50,Default (Red),b_n_khajiit_f_hair03,b_n_khajiit_f_head_02,No,No,10,10,10,10,10,10,10,10,0,100,0,0
zhac_snpc_welf_m_05_,NPC,Tuundir,zhac_aa_npcscript_1,10,Wood Elf,24,Clothier,zhac_settlement,0,No,No,,50,Default (Red),b_n_wood elf_m_hair_02,B_N_Wood Elf_M_Head_07,No,No,10,10,10,10,10,10,10,10,0,100,0,0
zhac_snpc_welf_m_13_,NPC,Tuundir,zhac_aa_npcscript_1,10,Wood Elf,24,Clothier,zhac_settlement,0,No,No,,50,Default (Red),b_n_wood elf_m_hair_05,b_n_wood elf_m_head_01,No,No,10,10,10,10,10,10,10,10,0,100,0,0
zhac_snpc_arg_m_16_,NPC,Twice-Bitten,zhac_aa_npcscript_1,10,Argonian,24,Clothier,zhac_settlement,0,No,No,base_animKnA.nif,50,Default (Red),b_n_argonian_m_hair03,b_n_argonian_m_head_02,No,No,10,10,10,10,10,10,10,10,0,100,0,0
zhac_snpc_khaj_f_07_,NPC,Udarra,zhac_aa_npcscript_1,10,Khajiit,25,Clothier,zhac_settlement,0,No,No,base_animKnA.nif,50,Default (Red),b_n_khajiit_f_hair01,b_n_khajiit_f_head_02,No,No,10,10,10,10,10,10,10,10,0,100,0,0
zhac_snpc_khaj_f_18_,NPC,Udarra,zhac_aa_npcscript_1,10,Khajiit,25,Clothier,zhac_settlement,0,No,No,base_animKnA.nif,50,Default (Red),b_n_khajiit_f_hair05,b_n_khajiit_f_head_03,No,No,10,10,10,10,10,10,10,10,0,100,0,0
zhac_snpc_helf_m_09_,NPC,Umbacano,zhac_aa_npcscript_1,10,High Elf,24,Clothier,zhac_settlement,0,No,No,,50,Default (Red),b_n_high elf_m_hair_02,b_n_high elf_m_head_02,No,No,10,10,10,10,10,10,10,10,0,100,0,0
zhac_snpc_orc_m_07_,NPC,Umug gro-Ogdub,zhac_aa_npcscript_1,10,Orc,24,Clothier,zhac_settlement,0,No,No,,50,Default (Red),b_n_orc_m_hair_05,b_n_orc_m_head_03,No,No,10,10,10,10,10,10,10,10,0,100,0,0
zhac_snpc_welf_m_18_,NPC,Ungeleb,zhac_aa_npcscript_1,10,Wood Elf,24,Clothier,zhac_settlement,0,No,No,,50,Default (Red),b_n_wood elf_m_hair_02,b_n_wood elf_m_head_04,No,No,10,10,10,10,10,10,10,10,0,100,0,0
zhac_snpc_khaj_f_12_,NPC,Unjara,zhac_aa_npcscript_1,10,Khajiit,25,Clothier,zhac_settlement,0,No,No,base_animKnA.nif,50,Default (Red),b_n_khajiit_f_hair02,b_n_khajiit_f_head_02,No,No,10,10,10,10,10,10,10,10,0,100,0,0
zhac_snpc_orc_m_06_,NPC,Urim gro-Shulor,zhac_aa_npcscript_1,10,Orc,24,Clothier,zhac_settlement,0,No,No,,50,Default (Red),b_n_orc_m_hair_01,b_n_orc_m_head_01,No,No,10,10,10,10,10,10,10,10,0,100,0,0
zhac_snpc_khaj_m_10_,NPC,Urjorad,zhac_aa_npcscript_1,10,Khajiit,24,Clothier,zhac_settlement,0,No,No,base_animKnA.nif,50,Default (Red),b_n_khajiit_m_hair03,b_n_khajiit_m_head_03,No,No,10,10,10,10,10,10,10,10,0,100,0,0
zhac_snpc_orc_m_18_,NPC,Urzog gro-Gulfim,zhac_aa_npcscript_1,10,Orc,24,Clothier,zhac_settlement,0,No,No,,50,Default (Red),b_n_orc_m_hair_02,b_n_orc_m_head_01,No,No,10,10,10,10,10,10,10,10,0,100,0,0
zhac_snpc_orc_f_01_,NPC,Urzoth gra-Gulfim,zhac_aa_npcscript_1,10,Orc,25,Clothier,zhac_settlement,0,No,No,,50,Default (Red),b_n_orc_f_hair05,b_n_orc_f_head_03,No,No,10,10,10,10,10,10,10,10,0,100,0,0
zhac_snpc_helf_m_08_,NPC,Uulernil,zhac_aa_npcscript_1,10,High Elf,24,Clothier,zhac_settlement,0,No,No,,50,Default (Red),b_n_high elf_m_hair_05,b_n_high elf_m_head_04,No,No,10,10,10,10,10,10,10,10,0,100,0,0
zhac_snpc_helf_m_16_,NPC,Uulernil,zhac_aa_npcscript_1,10,High Elf,24,Clothier,zhac_settlement,0,No,No,,50,Default (Red),b_n_high elf_m_hair_01,b_n_high elf_m_head_05,No,No,10,10,10,10,10,10,10,10,0,100,0,0
zhac_snpc_imp_m_17_,NPC,Vala Felannus,zhac_aa_npcscript_1,10,Imperial,24,Clothier,zhac_settlement,0,No,No,,50,Default (Red),b_n_imperial_m_hair_04,B_N_Imperial_M_Head_07,No,No,10,10,10,10,10,10,10,10,0,100,0,0
zhac_snpc_imp_m_05_,NPC,Vala Otiustiris,zhac_aa_npcscript_1,10,Imperial,24,Clothier,zhac_settlement,0,No,No,,50,Default (Red),b_n_imperial_m_hair_05,b_n_imperial_m_head_02,No,No,10,10,10,10,10,10,10,10,0,100,0,0
zhac_snpc_imp_m_19_,NPC,Valvius Dergius,zhac_aa_npcscript_1,10,Imperial,24,Clothier,zhac_settlement,0,No,No,,50,Default (Red),B_N_Imperial_M_Hair_06,b_n_imperial_m_head_03,No,No,10,10,10,10,10,10,10,10,0,100,0,0
zhac_snpc_dunm_m_17_,NPC,Vares Girano,zhac_aa_npcscript_1,10,Dark Elf,24,Clothier,zhac_settlement,0,No,No,,50,Default (Red),b_n_dark elf_m_hair_05,b_n_dark elf_m_head_06,No,No,10,10,10,10,10,10,10,10,0,100,0,0
zhac_snpc_imp_f_14_,NPC,Vianis Herennia,zhac_aa_npcscript_1,10,Imperial,25,Clothier,zhac_settlement,0,No,No,,50,Default (Red),b_n_imperial_f_hair_02,b_n_imperial_f_head_04,No,No,10,10,10,10,10,10,10,10,0,100,0,0
zhac_snpc_dunm_m_05_,NPC,Voruse Driler,zhac_aa_npcscript_1,10,Dark Elf,24,Clothier,zhac_settlement,0,No,No,,50,Default (Red),b_n_dark elf_m_hair_25,b_n_dark elf_m_head_08,No,No,10,10,10,10,10,10,10,10,0,100,0,0
zhac_snpc_arg_m_14_,NPC,Wanan-Dum,zhac_aa_npcscript_1,10,Argonian,24,Clothier,zhac_settlement,0,No,No,base_animKnA.nif,50,Default (Red),b_n_argonian_m_hair03,b_n_argonian_m_head_02,No,No,10,10,10,10,10,10,10,10,0,100,0,0
zhac_snpc_arg_m_02_,NPC,Wind-In-His-Hair,zhac_aa_npcscript_1,10,Argonian,24,Clothier,zhac_settlement,0,No,No,base_animKnA.nif,50,Default (Red),b_n_argonian_m_hair03,b_n_argonian_m_head_03,No,No,10,10,10,10,10,10,10,10,0,100,0,0
zhac_snpc_arg_f_06_,NPC,Wusha,zhac_aa_npcscript_1,10,Argonian,25,Clothier,zhac_settlement,0,No,No,base_animKnA.nif,50,Default (Red),b_n_argonian_f_hair03,b_n_argonian_f_head_03,No,No,10,10,10,10,10,10,10,10,0,100,0,0
zhac_snpc_orc_m_14_,NPC,Yambagorn gro-Khashnar,zhac_aa_npcscript_1,10,Orc,24,Clothier,zhac_settlement,0,No,No,,50,Default (Red),b_n_orc_m_hair_01,b_n_orc_m_head_02,No,No,10,10,10,10,10,10,10,10,0,100,0,0
zhac_snpc_helf_m_02_,NPC,Yanniss,zhac_aa_npcscript_1,10,High Elf,24,Clothier,zhac_settlement,0,No,No,,50,Default (Red),b_n_high elf_m_hair_05,b_n_high elf_m_head_04,No,No,10,10,10,10,10,10,10,10,0,100,0,0
zhac_snpc_helf_m_11_,NPC,Yanniss,zhac_aa_npcscript_1,10,High Elf,24,Clothier,zhac_settlement,0,No,No,,50,Default (Red),b_n_high elf_m_hair_01,b_n_high elf_m_head_01,No,No,10,10,10,10,10,10,10,10,0,100,0,0
zhac_snpc_helf_m_13_,NPC,Yarnar,zhac_aa_npcscript_1,10,High Elf,24,Clothier,zhac_settlement,0,No,No,,50,Default (Red),b_n_high elf_m_hair_03,b_n_high elf_m_head_01,No,No,10,10,10,10,10,10,10,10,0,100,0,0
zhac_snpc_orc_m_12_,NPC,Yashnarz gro-Agadbu,zhac_aa_npcscript_1,10,Orc,24,Clothier,zhac_settlement,0,No,No,,50,Default (Red),b_n_orc_m_hair_03,b_n_orc_m_head_03,No,No,10,10,10,10,10,10,10,10,0,100,0,0
zhac_snpc_orc_m_20_,NPC,Yatur gro-Ogdub,zhac_aa_npcscript_1,10,Orc,24,Clothier,zhac_settlement,0,No,No,,50,Default (Red),b_n_orc_m_hair_05,b_n_orc_m_head_01,No,No,10,10,10,10,10,10,10,10,0,100,0,0
zhac_snpc_nord_f_13_,NPC,Ygfa,zhac_aa_npcscript_1,10,Nord,25,Clothier,zhac_settlement,0,No,No,,50,Default (Red),b_n_nord_f_hair_02,b_n_nord_f_head_05,No,No,10,10,10,10,10,10,10,10,0,100,0,0
zhac_snpc_bret_m_02_,NPC,Ylbert Geves,zhac_aa_npcscript_1,10,Breton,24,Clothier,zhac_settlement,0,No,No,,50,Default (Red),b_n_breton_m_hair_02,b_n_breton_m_head_04,No,No,10,10,10,10,10,10,10,10,0,100,0,0
zhac_snpc_khaj_f_19_,NPC,Zahraji,zhac_aa_npcscript_1,10,Khajiit,25,Clothier,zhac_settlement,0,No,No,base_animKnA.nif,50,Default (Red),b_n_khajiit_f_hair02,b_n_khajiit_f_head_03,No,No,10,10,10,10,10,10,10,10,0,100,0,0
