[
  {
    "type": "Header",
    "flags": [
      0,
      0
    ],
    "version": 1.3,
    "file_type": "Esp",
    "author": "",
    "description": "",
    "num_objects": 2,
    "masters": [
      [
        "Morrowind.esm",
        79837557
      ],
      [
        "Tribunal.esm",
        4565686
      ],
      [
        "Bloodmoon.esm",
        9631798
      ]
    ]
  },
  {
    "type": "Cell",
    "flags": [
      0,
      0
    ],
    "id": "",
    "data": {
      "flags": 2,
      "grid": [
        0,
        6
      ]
    },
    "region": "Ashlands Region",
    "references": [
      {
        "mast_index": 1,
        "refr_index": 431453,
        "id": "ghostgate glow",
        "temporary": true,
        "translation": [
          0.0,
          0.0,
          0.0
        ],
        "rotation": [
          0.0,
          0.0,
          0.0
        ],
        "deleted": 4729956
      }
    ]
  },
  {
    "type": "Cell",
    "flags": [
      0,
      0
    ],
    "id": "",
    "data": {
      "flags": 2,
      "grid": [
        0,
        5
      ]
    },
    "region": "Ashlands Region",
    "references": [
      {
        "mast_index": 0,
        "refr_index": 1,
        "id": "a_furn_de_chair_3",
        "temporary": true,
        "translation": [
          7680.0,
          48896.0,
          9338.88
        ],
        "rotation": [
          0.0,
          0.0,
          0.0
        ]
      }
    ]
  }
]